EESchema Schematic File Version 4
LIBS:switch_breakout-cache
EELAYER 29 0
EELAYER END
$Descr A4 11693 8268
encoding utf-8
Sheet 1 1
Title ""
Date ""
Rev ""
Comp ""
Comment1 ""
Comment2 ""
Comment3 ""
Comment4 ""
$EndDescr
$Comp
L Connector:Conn_Coaxial J1
U 1 1 5C8CCA58
P 5400 3350
F 0 "J1" H 5400 3600 50  0000 C CNN
F 1 "SMA" H 5400 3500 50  0000 C CNN
F 2 "custom_footprints:CON_SMA_EDGE_S" H 5400 3350 50  0001 C CNN
F 3 " ~" H 5400 3350 50  0001 C CNN
	1    5400 3350
	-1   0    0    -1  
$EndComp
$Comp
L Connector:Conn_Coaxial J3
U 1 1 5C8CCBAB
P 8850 3350
F 0 "J3" H 8850 3600 50  0000 L CNN
F 1 "SMA" H 8800 3500 50  0000 L CNN
F 2 "custom_footprints:CON_SMA_EDGE_S" H 8850 3350 50  0001 C CNN
F 3 " ~" H 8850 3350 50  0001 C CNN
	1    8850 3350
	1    0    0    -1  
$EndComp
$Comp
L Connector:Conn_Coaxial J2
U 1 1 5C8CCC86
P 6050 4600
F 0 "J2" H 6050 4850 50  0000 C CNN
F 1 "SMA" H 6050 4750 50  0000 C CNN
F 2 "custom_footprints:CON_SMA_EDGE_S" H 6050 4600 50  0001 C CNN
F 3 " ~" H 6050 4600 50  0001 C CNN
	1    6050 4600
	-1   0    0    -1  
$EndComp
$Comp
L power:GND #PWR0102
U 1 1 5C8CCD95
P 5400 3550
F 0 "#PWR0102" H 5400 3300 50  0001 C CNN
F 1 "GND" H 5405 3377 50  0000 C CNN
F 2 "" H 5400 3550 50  0001 C CNN
F 3 "" H 5400 3550 50  0001 C CNN
	1    5400 3550
	1    0    0    -1  
$EndComp
$Comp
L power:GND #PWR0103
U 1 1 5C8CCDA8
P 6050 4800
F 0 "#PWR0103" H 6050 4550 50  0001 C CNN
F 1 "GND" H 6055 4627 50  0000 C CNN
F 2 "" H 6050 4800 50  0001 C CNN
F 3 "" H 6050 4800 50  0001 C CNN
	1    6050 4800
	1    0    0    -1  
$EndComp
Wire Wire Line
	6250 4600 7250 4600
$Comp
L power:GND #PWR0104
U 1 1 5C8CCDF4
P 8850 3550
F 0 "#PWR0104" H 8850 3300 50  0001 C CNN
F 1 "GND" H 8855 3377 50  0000 C CNN
F 2 "" H 8850 3550 50  0001 C CNN
F 3 "" H 8850 3550 50  0001 C CNN
	1    8850 3550
	1    0    0    -1  
$EndComp
$Comp
L power:GND #PWR017
U 1 1 5C9CDAD4
P 7400 4000
F 0 "#PWR017" H 7400 3750 50  0001 C CNN
F 1 "GND" H 7405 3827 50  0000 C CNN
F 2 "" H 7400 4000 50  0001 C CNN
F 3 "" H 7400 4000 50  0001 C CNN
	1    7400 4000
	1    0    0    -1  
$EndComp
$Comp
L power:GND #PWR014
U 1 1 5C9CE20B
P 7100 4000
F 0 "#PWR014" H 7100 3750 50  0001 C CNN
F 1 "GND" H 7105 3827 50  0000 C CNN
F 2 "" H 7100 4000 50  0001 C CNN
F 3 "" H 7100 4000 50  0001 C CNN
	1    7100 4000
	1    0    0    -1  
$EndComp
Wire Wire Line
	7050 4000 7100 4000
Wire Wire Line
	7100 4000 7150 4000
Connection ~ 7100 4000
Wire Wire Line
	7350 4000 7400 4000
Wire Wire Line
	7400 4000 7450 4000
Connection ~ 7400 4000
$Comp
L power:GND #PWR020
U 1 1 5C9CE9D4
P 7900 3500
F 0 "#PWR020" H 7900 3250 50  0001 C CNN
F 1 "GND" H 7905 3327 50  0000 C CNN
F 2 "" H 7900 3500 50  0001 C CNN
F 3 "" H 7900 3500 50  0001 C CNN
	1    7900 3500
	0    -1   -1   0   
$EndComp
$Comp
L power:GND #PWR019
U 1 1 5C9CF88C
P 7900 3200
F 0 "#PWR019" H 7900 2950 50  0001 C CNN
F 1 "GND" H 7905 3027 50  0000 C CNN
F 2 "" H 7900 3200 50  0001 C CNN
F 3 "" H 7900 3200 50  0001 C CNN
	1    7900 3200
	0    -1   -1   0   
$EndComp
Wire Wire Line
	7900 3150 7900 3200
Wire Wire Line
	7900 3200 7900 3250
Connection ~ 7900 3200
Wire Wire Line
	7900 3450 7900 3500
Wire Wire Line
	7900 3500 7900 3550
Connection ~ 7900 3500
$Comp
L power:GND #PWR011
U 1 1 5C9D01EE
P 6600 3500
F 0 "#PWR011" H 6600 3250 50  0001 C CNN
F 1 "GND" H 6605 3327 50  0000 C CNN
F 2 "" H 6600 3500 50  0001 C CNN
F 3 "" H 6600 3500 50  0001 C CNN
	1    6600 3500
	0    1    1    0   
$EndComp
$Comp
L power:GND #PWR010
U 1 1 5C9D0A57
P 6600 3200
F 0 "#PWR010" H 6600 2950 50  0001 C CNN
F 1 "GND" H 6605 3027 50  0000 C CNN
F 2 "" H 6600 3200 50  0001 C CNN
F 3 "" H 6600 3200 50  0001 C CNN
	1    6600 3200
	0    1    1    0   
$EndComp
Wire Wire Line
	6600 3150 6600 3200
Wire Wire Line
	6600 3200 6600 3250
Connection ~ 6600 3200
Wire Wire Line
	6600 3450 6600 3500
Wire Wire Line
	6600 3500 6600 3550
Connection ~ 6600 3500
$Comp
L power:GND #PWR015
U 1 1 5C9D168F
P 7200 2700
F 0 "#PWR015" H 7200 2450 50  0001 C CNN
F 1 "GND" H 7205 2527 50  0000 C CNN
F 2 "" H 7200 2700 50  0001 C CNN
F 3 "" H 7200 2700 50  0001 C CNN
	1    7200 2700
	-1   0    0    1   
$EndComp
Wire Wire Line
	7150 2700 7200 2700
Wire Wire Line
	7250 2700 7200 2700
Connection ~ 7200 2700
$Comp
L power:GND #PWR05
U 1 1 5C9D49BB
P 4200 2500
F 0 "#PWR05" H 4200 2250 50  0001 C CNN
F 1 "GND" H 4205 2327 50  0000 C CNN
F 2 "" H 4200 2500 50  0001 C CNN
F 3 "" H 4200 2500 50  0001 C CNN
	1    4200 2500
	1    0    0    -1  
$EndComp
$Comp
L power:VDD #PWR01
U 1 1 5C9D6507
P 2350 4250
F 0 "#PWR01" H 2350 4100 50  0001 C CNN
F 1 "VDD" H 2367 4423 50  0000 C CNN
F 2 "" H 2350 4250 50  0001 C CNN
F 3 "" H 2350 4250 50  0001 C CNN
	1    2350 4250
	1    0    0    -1  
$EndComp
$Comp
L power:VDD #PWR04
U 1 1 5C9D6DDA
P 3450 2500
F 0 "#PWR04" H 3450 2350 50  0001 C CNN
F 1 "VDD" V 3467 2628 50  0000 L CNN
F 2 "" H 3450 2500 50  0001 C CNN
F 3 "" H 3450 2500 50  0001 C CNN
	1    3450 2500
	0    -1   -1   0   
$EndComp
Text Label 3250 2400 0    50   ~ 0
CTRL_1
Text Label 3250 2300 0    50   ~ 0
CTRL_2
$Comp
L Device:C C2
U 1 1 5C9DDADA
P 3500 4650
F 0 "C2" H 3615 4696 50  0000 L CNN
F 1 "10n" H 3615 4605 50  0000 L CNN
F 2 "Capacitors_SMD:C_0603" H 3538 4500 50  0001 C CNN
F 3 "~" H 3500 4650 50  0001 C CNN
	1    3500 4650
	1    0    0    -1  
$EndComp
$Comp
L power:GND #PWR06
U 1 1 5C9DE811
P 3500 4800
F 0 "#PWR06" H 3500 4550 50  0001 C CNN
F 1 "GND" H 3505 4627 50  0000 C CNN
F 2 "" H 3500 4800 50  0001 C CNN
F 3 "" H 3500 4800 50  0001 C CNN
	1    3500 4800
	1    0    0    -1  
$EndComp
$Comp
L Device:C C3
U 1 1 5C9E1DE1
P 4050 4650
F 0 "C3" H 4165 4696 50  0000 L CNN
F 1 "2u2" H 4165 4605 50  0000 L CNN
F 2 "Capacitors_SMD:C_0805" H 4088 4500 50  0001 C CNN
F 3 "~" H 4050 4650 50  0001 C CNN
	1    4050 4650
	1    0    0    -1  
$EndComp
$Comp
L Regulator_Linear:LP2985-3.3 U3
U 1 1 5CA14A60
P 2900 4400
F 0 "U3" H 2900 4742 50  0000 C CNN
F 1 "LP2985-3.3" H 2900 4651 50  0000 C CNN
F 2 "TO_SOT_Packages_SMD:SOT-23-5" H 2900 4725 50  0001 C CNN
F 3 "http://www.ti.com/lit/ds/symlink/lp2985.pdf" H 2900 4400 50  0001 C CNN
F 4 "296-18476-1-ND " H 2900 4400 50  0001 C CNN "Digikey"
	1    2900 4400
	1    0    0    -1  
$EndComp
$Comp
L power:GND #PWR03
U 1 1 5CA218FE
P 2900 4800
F 0 "#PWR03" H 2900 4550 50  0001 C CNN
F 1 "GND" H 2905 4627 50  0000 C CNN
F 2 "" H 2900 4800 50  0001 C CNN
F 3 "" H 2900 4800 50  0001 C CNN
	1    2900 4800
	1    0    0    -1  
$EndComp
Wire Wire Line
	2900 4700 2900 4800
Wire Wire Line
	2500 4300 2350 4300
Wire Wire Line
	2350 4300 2350 4250
Wire Wire Line
	2500 4400 2350 4400
Wire Wire Line
	2350 4400 2350 4300
Connection ~ 2350 4300
Wire Wire Line
	3300 4400 3500 4400
Wire Wire Line
	3500 4400 3500 4500
$Comp
L power:GND #PWR07
U 1 1 5CA26758
P 4050 4800
F 0 "#PWR07" H 4050 4550 50  0001 C CNN
F 1 "GND" H 4055 4627 50  0000 C CNN
F 2 "" H 4050 4800 50  0001 C CNN
F 3 "" H 4050 4800 50  0001 C CNN
	1    4050 4800
	1    0    0    -1  
$EndComp
$Comp
L power:+3V3 #PWR012
U 1 1 5CA28995
P 6750 2650
F 0 "#PWR012" H 6750 2500 50  0001 C CNN
F 1 "+3V3" H 6765 2823 50  0000 C CNN
F 2 "" H 6750 2650 50  0001 C CNN
F 3 "" H 6750 2650 50  0001 C CNN
	1    6750 2650
	1    0    0    -1  
$EndComp
$Comp
L Device:C C1
U 1 1 5CA29258
P 2350 4650
F 0 "C1" H 2465 4696 50  0000 L CNN
F 1 "1u" H 2465 4605 50  0000 L CNN
F 2 "Capacitors_SMD:C_0805" H 2388 4500 50  0001 C CNN
F 3 "~" H 2350 4650 50  0001 C CNN
	1    2350 4650
	1    0    0    -1  
$EndComp
$Comp
L Device:C C4
U 1 1 5CA2A4C1
P 4500 4650
F 0 "C4" H 4615 4696 50  0000 L CNN
F 1 "100n" H 4615 4605 50  0000 L CNN
F 2 "Capacitors_SMD:C_0603" H 4538 4500 50  0001 C CNN
F 3 "~" H 4500 4650 50  0001 C CNN
	1    4500 4650
	1    0    0    -1  
$EndComp
$Comp
L power:GND #PWR09
U 1 1 5CA2AAC1
P 4500 4800
F 0 "#PWR09" H 4500 4550 50  0001 C CNN
F 1 "GND" H 4505 4627 50  0000 C CNN
F 2 "" H 4500 4800 50  0001 C CNN
F 3 "" H 4500 4800 50  0001 C CNN
	1    4500 4800
	1    0    0    -1  
$EndComp
Wire Wire Line
	4500 4500 4500 4300
$Comp
L power:+3V3 #PWR08
U 1 1 5CA2B657
P 4500 4250
F 0 "#PWR08" H 4500 4100 50  0001 C CNN
F 1 "+3V3" H 4515 4423 50  0000 C CNN
F 2 "" H 4500 4250 50  0001 C CNN
F 3 "" H 4500 4250 50  0001 C CNN
	1    4500 4250
	1    0    0    -1  
$EndComp
Wire Wire Line
	3300 4300 4050 4300
Wire Wire Line
	4050 4500 4050 4300
Connection ~ 4050 4300
Wire Wire Line
	4050 4300 4500 4300
Wire Wire Line
	4500 4250 4500 4300
Connection ~ 4500 4300
Wire Wire Line
	2350 4400 2350 4500
Connection ~ 2350 4400
$Comp
L power:GND #PWR02
U 1 1 5CA2D99B
P 2350 4800
F 0 "#PWR02" H 2350 4550 50  0001 C CNN
F 1 "GND" H 2355 4627 50  0000 C CNN
F 2 "" H 2350 4800 50  0001 C CNN
F 3 "" H 2350 4800 50  0001 C CNN
	1    2350 4800
	1    0    0    -1  
$EndComp
$Comp
L 74xGxx:74LVC2G17 U2
U 2 1 5CA2E26E
P 7700 2050
F 0 "U2" H 7675 2317 50  0000 C CNN
F 1 "74LVC2G17" H 7675 2226 50  0000 C CNN
F 2 "TO_SOT_Packages_SMD:SOT-23-6" H 7700 2050 50  0001 C CNN
F 3 "http://www.ti.com/lit/ds/symlink/sn74lvc2g17.pdf" H 7700 2050 50  0001 C CNN
	2    7700 2050
	-1   0    0    -1  
$EndComp
$Comp
L 74xGxx:74LVC2G17 U2
U 1 1 5CA30DF3
P 7100 2050
F 0 "U2" H 7075 2317 50  0000 C CNN
F 1 "74LVC2G17" H 7075 2226 50  0000 C CNN
F 2 "TO_SOT_Packages_SMD:SOT-23-6" H 7100 2050 50  0001 C CNN
F 3 "http://www.ti.com/lit/ds/symlink/sn74lvc2g17.pdf" H 7100 2050 50  0001 C CNN
F 4 "296-26621-1-ND" H 7100 2050 50  0001 C CNN "Digikey"
	1    7100 2050
	1    0    0    -1  
$EndComp
Wire Wire Line
	7350 2050 7350 2700
Wire Wire Line
	7450 2050 7450 2700
$Comp
L power:GND #PWR018
U 1 1 5CA695B2
P 7700 2150
F 0 "#PWR018" H 7700 1900 50  0001 C CNN
F 1 "GND" H 7705 1977 50  0000 C CNN
F 2 "" H 7700 2150 50  0001 C CNN
F 3 "" H 7700 2150 50  0001 C CNN
	1    7700 2150
	1    0    0    -1  
$EndComp
$Comp
L power:GND #PWR013
U 1 1 5CA69DDA
P 7100 2150
F 0 "#PWR013" H 7100 1900 50  0001 C CNN
F 1 "GND" H 7105 1977 50  0000 C CNN
F 2 "" H 7100 2150 50  0001 C CNN
F 3 "" H 7100 2150 50  0001 C CNN
	1    7100 2150
	1    0    0    -1  
$EndComp
$Comp
L power:+3V3 #PWR016
U 1 1 5CA6A127
P 7400 1950
F 0 "#PWR016" H 7400 1800 50  0001 C CNN
F 1 "+3V3" H 7415 2123 50  0000 C CNN
F 2 "" H 7400 1950 50  0001 C CNN
F 3 "" H 7400 1950 50  0001 C CNN
	1    7400 1950
	1    0    0    -1  
$EndComp
Wire Wire Line
	7100 1950 7400 1950
Wire Wire Line
	7700 1950 7400 1950
Connection ~ 7400 1950
Wire Wire Line
	7050 2700 6750 2700
Wire Wire Line
	6750 2700 6750 2650
Text Label 6500 2050 0    50   ~ 0
CTRL_1
Text Label 8100 2050 0    50   ~ 0
CTRL_2
Wire Wire Line
	8100 2050 8000 2050
Wire Wire Line
	6500 2050 6800 2050
$Comp
L Device:C C5
U 1 1 5CA7C69A
P 6100 3350
F 0 "C5" V 6250 3300 50  0000 L CNN
F 1 "100p" V 6350 3250 50  0000 L CNN
F 2 "Capacitors_SMD:C_0402" H 6138 3200 50  0001 C CNN
F 3 "~" H 6100 3350 50  0001 C CNN
	1    6100 3350
	0    1    1    0   
$EndComp
Wire Wire Line
	6600 3350 6250 3350
Wire Wire Line
	5950 3350 5600 3350
$Comp
L Device:C C6
U 1 1 5CA7E683
P 7250 4300
F 0 "C6" H 7050 4400 50  0000 L CNN
F 1 "100p" H 6950 4500 50  0000 L CNN
F 2 "Capacitors_SMD:C_0402" H 7288 4150 50  0001 C CNN
F 3 "~" H 7250 4300 50  0001 C CNN
	1    7250 4300
	-1   0    0    1   
$EndComp
Wire Wire Line
	7250 4150 7250 4000
Wire Wire Line
	7250 4600 7250 4450
$Comp
L Device:C C7
U 1 1 5CA80BBB
P 8350 3350
F 0 "C7" V 8500 3300 50  0000 L CNN
F 1 "100p" V 8600 3250 50  0000 L CNN
F 2 "Capacitors_SMD:C_0402" H 8388 3200 50  0001 C CNN
F 3 "~" H 8350 3350 50  0001 C CNN
	1    8350 3350
	0    1    1    0   
$EndComp
Wire Wire Line
	7900 3350 8200 3350
Wire Wire Line
	8500 3350 8650 3350
Wire Wire Line
	4200 2500 4100 2500
Wire Wire Line
	3450 2500 3550 2500
Wire Wire Line
	4100 2500 4100 2400
Wire Wire Line
	4100 2400 4050 2400
Connection ~ 4100 2500
Wire Wire Line
	4100 2500 4050 2500
Wire Wire Line
	4100 2400 4100 2300
Wire Wire Line
	4100 2300 4050 2300
Connection ~ 4100 2400
$Comp
L Device:R R4
U 1 1 5CA8C458
P 2850 2550
F 0 "R4" H 2920 2596 50  0000 L CNN
F 1 "10M" H 2920 2505 50  0000 L CNN
F 2 "Resistors_SMD:R_0603" V 2780 2550 50  0001 C CNN
F 3 "~" H 2850 2550 50  0001 C CNN
	1    2850 2550
	1    0    0    -1  
$EndComp
$Comp
L Device:R R2
U 1 1 5CA8D2DB
P 2500 2550
F 0 "R2" H 2570 2596 50  0000 L CNN
F 1 "10M" H 2570 2505 50  0000 L CNN
F 2 "Resistors_SMD:R_0603" V 2430 2550 50  0001 C CNN
F 3 "~" H 2500 2550 50  0001 C CNN
	1    2500 2550
	1    0    0    -1  
$EndComp
Wire Wire Line
	2850 2400 3550 2400
Wire Wire Line
	2500 2400 2500 2300
Wire Wire Line
	2500 2300 3550 2300
$Comp
L power:GND #PWR024
U 1 1 5CA8F60C
P 2850 2700
F 0 "#PWR024" H 2850 2450 50  0001 C CNN
F 1 "GND" H 2855 2527 50  0000 C CNN
F 2 "" H 2850 2700 50  0001 C CNN
F 3 "" H 2850 2700 50  0001 C CNN
	1    2850 2700
	1    0    0    -1  
$EndComp
$Comp
L power:GND #PWR022
U 1 1 5CA8FA99
P 2500 2700
F 0 "#PWR022" H 2500 2450 50  0001 C CNN
F 1 "GND" H 2505 2527 50  0000 C CNN
F 2 "" H 2500 2700 50  0001 C CNN
F 3 "" H 2500 2700 50  0001 C CNN
	1    2500 2700
	1    0    0    -1  
$EndComp
$Comp
L Device:R R1
U 1 1 5CA8FD3F
P 2500 2100
F 0 "R1" H 2431 2054 50  0000 R CNN
F 1 "1M" H 2431 2145 50  0000 R CNN
F 2 "Resistors_SMD:R_0603" V 2430 2100 50  0001 C CNN
F 3 "~" H 2500 2100 50  0001 C CNN
	1    2500 2100
	1    0    0    1   
$EndComp
Wire Wire Line
	2500 2300 2500 2250
Connection ~ 2500 2300
$Comp
L power:+3V3 #PWR021
U 1 1 5CA911A9
P 2500 1900
F 0 "#PWR021" H 2500 1750 50  0001 C CNN
F 1 "+3V3" H 2515 2073 50  0000 C CNN
F 2 "" H 2500 1900 50  0001 C CNN
F 3 "" H 2500 1900 50  0001 C CNN
	1    2500 1900
	1    0    0    -1  
$EndComp
Wire Wire Line
	2500 1950 2500 1900
Wire Wire Line
	2850 2400 2850 2250
Connection ~ 2850 2400
$Comp
L Device:R R3
U 1 1 5CA949EA
P 2850 2100
F 0 "R3" H 2781 2054 50  0000 R CNN
F 1 "1M" H 2781 2145 50  0000 R CNN
F 2 "Resistors_SMD:R_0603" V 2780 2100 50  0001 C CNN
F 3 "~" H 2850 2100 50  0001 C CNN
	1    2850 2100
	1    0    0    1   
$EndComp
$Comp
L power:+3V3 #PWR023
U 1 1 5CA94DD2
P 2850 1900
F 0 "#PWR023" H 2850 1750 50  0001 C CNN
F 1 "+3V3" H 2865 2073 50  0000 C CNN
F 2 "" H 2850 1900 50  0001 C CNN
F 3 "" H 2850 1900 50  0001 C CNN
	1    2850 1900
	1    0    0    -1  
$EndComp
Wire Wire Line
	2850 1950 2850 1900
$Comp
L Connector_Generic:Conn_02x03_Odd_Even J4
U 1 1 5CA1B05A
P 3750 2400
F 0 "J4" H 3800 2717 50  0000 C CNN
F 1 "Conn_02x03_Odd_Even" H 3800 2626 50  0000 C CNN
F 2 "Pin_Headers:Pin_Header_Straight_2x03_Pitch2.54mm" H 3750 2400 50  0001 C CNN
F 3 "~" H 3750 2400 50  0001 C CNN
	1    3750 2400
	1    0    0    -1  
$EndComp
$Comp
L custom_symbols:HSWA2-30DR+ U1
U 1 1 5CA26DCD
P 6800 3800
F 0 "U1" H 7944 4296 50  0000 L CNN
F 1 "HSWA2-30DR+" H 7944 4205 50  0000 L CNN
F 2 "custom_footprints:HSWA2-30DR+" H 6800 3800 50  0001 C CNN
F 3 "../datasheets/HSWA2-30DR+.pdf" H 6800 3800 50  0001 C CNN
	1    6800 3800
	1    0    0    -1  
$EndComp
Wire Wire Line
	6600 2950 6600 3150
Connection ~ 6600 3150
$EndSCHEMATC
