EESchema Schematic File Version 4
LIBS:vnahw-cache
EELAYER 29 0
EELAYER END
$Descr A4 11693 8268
encoding utf-8
Sheet 1 1
Title ""
Date ""
Rev ""
Comp ""
Comment1 ""
Comment2 ""
Comment3 ""
Comment4 ""
$EndDescr
$Comp
L Device:C C5
U 1 1 5CA7C69A
P 3250 1800
F 0 "C5" V 3000 1750 50  0000 L CNN
F 1 "100p" V 3100 1700 50  0000 L CNN
F 2 "Capacitors_SMD:C_0402" H 3288 1650 50  0001 C CNN
F 3 "~" H 3250 1800 50  0001 C CNN
	1    3250 1800
	0    1    1    0   
$EndComp
Wire Wire Line
	6350 1800 6750 1800
Wire Wire Line
	6350 2100 7850 2100
Wire Wire Line
	7850 2100 7850 2000
Wire Wire Line
	5150 1800 4750 1800
Wire Wire Line
	3650 2100 3650 2000
Wire Wire Line
	3650 1800 3400 1800
$Comp
L Device:D_ALT D1
U 1 1 5D250463
P 2950 2000
F 0 "D1" V 2996 1921 50  0000 R CNN
F 1 "SMP1345" V 2905 1921 50  0000 R CNN
F 2 "Diodes_SMD:D_SC-80" H 2950 2000 50  0001 C CNN
F 3 "~" H 2950 2000 50  0001 C CNN
	1    2950 2000
	0    -1   -1   0   
$EndComp
$Comp
L power:GND #PWR0101
U 1 1 5D252EFB
P 2950 2200
F 0 "#PWR0101" H 2950 1950 50  0001 C CNN
F 1 "GND" H 2955 2027 50  0000 C CNN
F 2 "" H 2950 2200 50  0001 C CNN
F 3 "" H 2950 2200 50  0001 C CNN
	1    2950 2200
	1    0    0    -1  
$EndComp
Wire Wire Line
	2950 1850 2950 1800
Wire Wire Line
	2950 1800 3100 1800
Wire Wire Line
	2950 2150 2950 2200
$Comp
L Device:C C3
U 1 1 5D254C61
P 2600 1800
F 0 "C3" V 2350 1750 50  0000 L CNN
F 1 "100p" V 2450 1700 50  0000 L CNN
F 2 "Capacitors_SMD:C_0402" H 2638 1650 50  0001 C CNN
F 3 "~" H 2600 1800 50  0001 C CNN
	1    2600 1800
	0    1    1    0   
$EndComp
Wire Wire Line
	2750 1800 2950 1800
Connection ~ 2950 1800
$Comp
L Connector:Conn_Coaxial J1
U 1 1 5D25548F
P 2150 1800
F 0 "J1" H 2150 2050 50  0000 C CNN
F 1 "SMA" H 2150 1950 50  0000 C CNN
F 2 "custom_footprints:CON_SMA_EDGE_S" H 2150 1800 50  0001 C CNN
F 3 " ~" H 2150 1800 50  0001 C CNN
	1    2150 1800
	-1   0    0    -1  
$EndComp
Wire Wire Line
	2350 1800 2450 1800
$Comp
L power:GND #PWR0102
U 1 1 5D255DC0
P 2150 2200
F 0 "#PWR0102" H 2150 1950 50  0001 C CNN
F 1 "GND" H 2155 2027 50  0000 C CNN
F 2 "" H 2150 2200 50  0001 C CNN
F 3 "" H 2150 2200 50  0001 C CNN
	1    2150 2200
	1    0    0    -1  
$EndComp
Wire Wire Line
	2150 2200 2150 2000
$Comp
L Device:L L1
U 1 1 5D257B1C
P 2950 1550
F 0 "L1" H 2850 1600 50  0000 L CNN
F 1 "20nH" H 2750 1500 50  0000 L CNN
F 2 "Inductors_SMD:L_0402" H 2950 1550 50  0001 C CNN
F 3 "~" H 2950 1550 50  0001 C CNN
	1    2950 1550
	1    0    0    -1  
$EndComp
Wire Wire Line
	2950 1800 2950 1700
$Comp
L power:GND #PWR0103
U 1 1 5D259607
P 3650 1900
F 0 "#PWR0103" H 3650 1650 50  0001 C CNN
F 1 "GND" H 3655 1727 50  0000 C CNN
F 2 "" H 3650 1900 50  0001 C CNN
F 3 "" H 3650 1900 50  0001 C CNN
	1    3650 1900
	0    1    1    0   
$EndComp
$Comp
L power:GND #PWR0104
U 1 1 5D259CA2
P 5150 2300
F 0 "#PWR0104" H 5150 2050 50  0001 C CNN
F 1 "GND" H 5155 2127 50  0000 C CNN
F 2 "" H 5150 2300 50  0001 C CNN
F 3 "" H 5150 2300 50  0001 C CNN
	1    5150 2300
	0    1    1    0   
$EndComp
$Comp
L power:GND #PWR0105
U 1 1 5D25A87A
P 5150 2200
F 0 "#PWR0105" H 5150 1950 50  0001 C CNN
F 1 "GND" H 5155 2027 50  0000 C CNN
F 2 "" H 5150 2200 50  0001 C CNN
F 3 "" H 5150 2200 50  0001 C CNN
	1    5150 2200
	0    1    1    0   
$EndComp
$Comp
L power:GND #PWR0106
U 1 1 5D25AA80
P 5150 2000
F 0 "#PWR0106" H 5150 1750 50  0001 C CNN
F 1 "GND" H 5155 1827 50  0000 C CNN
F 2 "" H 5150 2000 50  0001 C CNN
F 3 "" H 5150 2000 50  0001 C CNN
	1    5150 2000
	0    1    1    0   
$EndComp
$Comp
L power:GND #PWR0107
U 1 1 5D25AE16
P 5150 1900
F 0 "#PWR0107" H 5150 1650 50  0001 C CNN
F 1 "GND" H 5155 1727 50  0000 C CNN
F 2 "" H 5150 1900 50  0001 C CNN
F 3 "" H 5150 1900 50  0001 C CNN
	1    5150 1900
	0    1    1    0   
$EndComp
$Comp
L power:GND #PWR0108
U 1 1 5D25B042
P 5150 1700
F 0 "#PWR0108" H 5150 1450 50  0001 C CNN
F 1 "GND" H 5155 1527 50  0000 C CNN
F 2 "" H 5150 1700 50  0001 C CNN
F 3 "" H 5150 1700 50  0001 C CNN
	1    5150 1700
	0    1    1    0   
$EndComp
$Comp
L power:GND #PWR0109
U 1 1 5D25B355
P 6350 1500
F 0 "#PWR0109" H 6350 1250 50  0001 C CNN
F 1 "GND" H 6355 1327 50  0000 C CNN
F 2 "" H 6350 1500 50  0001 C CNN
F 3 "" H 6350 1500 50  0001 C CNN
	1    6350 1500
	0    -1   -1   0   
$EndComp
$Comp
L power:GND #PWR0110
U 1 1 5D25BAC3
P 6350 1700
F 0 "#PWR0110" H 6350 1450 50  0001 C CNN
F 1 "GND" H 6355 1527 50  0000 C CNN
F 2 "" H 6350 1700 50  0001 C CNN
F 3 "" H 6350 1700 50  0001 C CNN
	1    6350 1700
	0    -1   -1   0   
$EndComp
$Comp
L power:GND #PWR0111
U 1 1 5D25BEDB
P 6350 1900
F 0 "#PWR0111" H 6350 1650 50  0001 C CNN
F 1 "GND" H 6355 1727 50  0000 C CNN
F 2 "" H 6350 1900 50  0001 C CNN
F 3 "" H 6350 1900 50  0001 C CNN
	1    6350 1900
	0    -1   -1   0   
$EndComp
$Comp
L power:GND #PWR0112
U 1 1 5D25C3EB
P 6350 2000
F 0 "#PWR0112" H 6350 1750 50  0001 C CNN
F 1 "GND" H 6355 1827 50  0000 C CNN
F 2 "" H 6350 2000 50  0001 C CNN
F 3 "" H 6350 2000 50  0001 C CNN
	1    6350 2000
	0    -1   -1   0   
$EndComp
$Comp
L power:GND #PWR0113
U 1 1 5D25C748
P 6350 2200
F 0 "#PWR0113" H 6350 1950 50  0001 C CNN
F 1 "GND" H 6355 2027 50  0000 C CNN
F 2 "" H 6350 2200 50  0001 C CNN
F 3 "" H 6350 2200 50  0001 C CNN
	1    6350 2200
	0    -1   -1   0   
$EndComp
$Comp
L power:GND #PWR0114
U 1 1 5D25CD13
P 6350 2400
F 0 "#PWR0114" H 6350 2150 50  0001 C CNN
F 1 "GND" H 6355 2227 50  0000 C CNN
F 2 "" H 6350 2400 50  0001 C CNN
F 3 "" H 6350 2400 50  0001 C CNN
	1    6350 2400
	0    -1   -1   0   
$EndComp
$Comp
L power:GND #PWR0115
U 1 1 5D25D851
P 7850 1900
F 0 "#PWR0115" H 7850 1650 50  0001 C CNN
F 1 "GND" H 7855 1727 50  0000 C CNN
F 2 "" H 7850 1900 50  0001 C CNN
F 3 "" H 7850 1900 50  0001 C CNN
	1    7850 1900
	0    -1   -1   0   
$EndComp
NoConn ~ 6750 2000
NoConn ~ 4750 2000
Wire Wire Line
	5150 1500 4900 1500
$Comp
L Device:C C11
U 1 1 5D268071
P 8250 1800
F 0 "C11" V 8000 1750 50  0000 L CNN
F 1 "100p" V 8100 1700 50  0000 L CNN
F 2 "Capacitors_SMD:C_0402" H 8288 1650 50  0001 C CNN
F 3 "~" H 8250 1800 50  0001 C CNN
	1    8250 1800
	0    -1   1    0   
$EndComp
Wire Wire Line
	7850 1800 8100 1800
$Comp
L Device:D_ALT D4
U 1 1 5D268078
P 8550 2000
F 0 "D4" V 8596 1921 50  0000 R CNN
F 1 "SMP1345" V 8505 1921 50  0000 R CNN
F 2 "Diodes_SMD:D_SC-80" H 8550 2000 50  0001 C CNN
F 3 "~" H 8550 2000 50  0001 C CNN
	1    8550 2000
	0    1    -1   0   
$EndComp
$Comp
L power:GND #PWR0116
U 1 1 5D26807E
P 8550 2200
F 0 "#PWR0116" H 8550 1950 50  0001 C CNN
F 1 "GND" H 8555 2027 50  0000 C CNN
F 2 "" H 8550 2200 50  0001 C CNN
F 3 "" H 8550 2200 50  0001 C CNN
	1    8550 2200
	-1   0    0    -1  
$EndComp
Wire Wire Line
	8550 1850 8550 1800
Wire Wire Line
	8550 1800 8400 1800
Wire Wire Line
	8550 2150 8550 2200
$Comp
L Device:C C12
U 1 1 5D268087
P 8900 1800
F 0 "C12" V 8650 1750 50  0000 L CNN
F 1 "100p" V 8750 1700 50  0000 L CNN
F 2 "Capacitors_SMD:C_0402" H 8938 1650 50  0001 C CNN
F 3 "~" H 8900 1800 50  0001 C CNN
	1    8900 1800
	0    -1   1    0   
$EndComp
Wire Wire Line
	8750 1800 8550 1800
Connection ~ 8550 1800
$Comp
L Connector:Conn_Coaxial J6
U 1 1 5D26808F
P 9350 1800
F 0 "J6" H 9350 2050 50  0000 C CNN
F 1 "SMA" H 9350 1950 50  0000 C CNN
F 2 "custom_footprints:CON_SMA_EDGE_S" H 9350 1800 50  0001 C CNN
F 3 " ~" H 9350 1800 50  0001 C CNN
	1    9350 1800
	1    0    0    -1  
$EndComp
Wire Wire Line
	9150 1800 9050 1800
$Comp
L power:GND #PWR0117
U 1 1 5D268096
P 9350 2200
F 0 "#PWR0117" H 9350 1950 50  0001 C CNN
F 1 "GND" H 9355 2027 50  0000 C CNN
F 2 "" H 9350 2200 50  0001 C CNN
F 3 "" H 9350 2200 50  0001 C CNN
	1    9350 2200
	-1   0    0    -1  
$EndComp
Wire Wire Line
	9350 2200 9350 2000
$Comp
L Device:L L2
U 1 1 5D26809D
P 8550 1550
F 0 "L2" H 8450 1600 50  0000 L CNN
F 1 "20nH" H 8350 1500 50  0000 L CNN
F 2 "Inductors_SMD:L_0402" H 8550 1550 50  0001 C CNN
F 3 "~" H 8550 1550 50  0001 C CNN
	1    8550 1550
	-1   0    0    -1  
$EndComp
Wire Wire Line
	8550 1800 8550 1700
$Comp
L Device:R R6
U 1 1 5D2680A4
P 8550 1200
F 0 "R6" H 8620 1246 50  0000 L CNN
F 1 "1K" H 8620 1155 50  0000 L CNN
F 2 "Resistors_SMD:R_0402" V 8480 1200 50  0001 C CNN
F 3 "~" H 8550 1200 50  0001 C CNN
	1    8550 1200
	-1   0    0    -1  
$EndComp
Wire Wire Line
	8550 1400 8550 1350
Wire Wire Line
	8550 1050 8550 1000
Wire Wire Line
	8550 1000 8700 1000
Text Label 8700 1000 2    50   ~ 0
PIN_BIAS_P2
$Comp
L Regulator_Linear:LP2985-2.5 U1
U 1 1 5D2168E1
P 1800 5550
F 0 "U1" H 1800 5892 50  0000 C CNN
F 1 "LP2985-2.5" H 1800 5801 50  0000 C CNN
F 2 "TO_SOT_Packages_SMD:SOT-23-5" H 1800 5875 50  0001 C CNN
F 3 "http://www.ti.com/lit/ds/symlink/lp2985.pdf" H 1800 5550 50  0001 C CNN
	1    1800 5550
	1    0    0    -1  
$EndComp
$Comp
L Device:C C1
U 1 1 5D218B78
P 1250 5850
F 0 "C1" H 1050 5800 50  0000 L CNN
F 1 "1u" H 1050 5900 50  0000 L CNN
F 2 "Capacitors_SMD:C_0805" H 1288 5700 50  0001 C CNN
F 3 "~" H 1250 5850 50  0001 C CNN
	1    1250 5850
	-1   0    0    1   
$EndComp
Wire Wire Line
	1250 5700 1250 5550
Wire Wire Line
	1250 5450 1400 5450
Wire Wire Line
	1400 5550 1250 5550
Connection ~ 1250 5550
Wire Wire Line
	1250 5550 1250 5450
$Comp
L power:+5V #PWR0118
U 1 1 5D21C9B7
P 1250 5350
F 0 "#PWR0118" H 1250 5200 50  0001 C CNN
F 1 "+5V" H 1265 5523 50  0000 C CNN
F 2 "" H 1250 5350 50  0001 C CNN
F 3 "" H 1250 5350 50  0001 C CNN
	1    1250 5350
	1    0    0    -1  
$EndComp
Wire Wire Line
	1250 5450 1250 5350
Connection ~ 1250 5450
$Comp
L power:GND #PWR0119
U 1 1 5D21D649
P 1250 6050
F 0 "#PWR0119" H 1250 5800 50  0001 C CNN
F 1 "GND" H 1255 5877 50  0000 C CNN
F 2 "" H 1250 6050 50  0001 C CNN
F 3 "" H 1250 6050 50  0001 C CNN
	1    1250 6050
	1    0    0    -1  
$EndComp
$Comp
L power:GND #PWR0120
U 1 1 5D21DB81
P 1800 6050
F 0 "#PWR0120" H 1800 5800 50  0001 C CNN
F 1 "GND" H 1805 5877 50  0000 C CNN
F 2 "" H 1800 6050 50  0001 C CNN
F 3 "" H 1800 6050 50  0001 C CNN
	1    1800 6050
	1    0    0    -1  
$EndComp
Wire Wire Line
	1250 6000 1250 6050
Wire Wire Line
	1800 6050 1800 5850
$Comp
L Device:C C2
U 1 1 5D21F3C4
P 2400 5850
F 0 "C2" H 2200 5800 50  0000 L CNN
F 1 "10n" H 2150 5900 50  0000 L CNN
F 2 "Capacitors_SMD:C_0603" H 2438 5700 50  0001 C CNN
F 3 "~" H 2400 5850 50  0001 C CNN
	1    2400 5850
	-1   0    0    1   
$EndComp
$Comp
L Device:C C6
U 1 1 5D220555
P 3100 5850
F 0 "C6" H 2900 5800 50  0000 L CNN
F 1 "1u" H 2900 5900 50  0000 L CNN
F 2 "Capacitors_SMD:C_0805" H 3138 5700 50  0001 C CNN
F 3 "~" H 3100 5850 50  0001 C CNN
	1    3100 5850
	-1   0    0    1   
$EndComp
$Comp
L Device:C C4
U 1 1 5D220006
P 2750 5850
F 0 "C4" H 2550 5800 50  0000 L CNN
F 1 "2u2" H 2500 5900 50  0000 L CNN
F 2 "Capacitors_SMD:C_0603" H 2788 5700 50  0001 C CNN
F 3 "~" H 2750 5850 50  0001 C CNN
	1    2750 5850
	-1   0    0    1   
$EndComp
$Comp
L power:GND #PWR0121
U 1 1 5D2215A7
P 2400 6050
F 0 "#PWR0121" H 2400 5800 50  0001 C CNN
F 1 "GND" H 2405 5877 50  0000 C CNN
F 2 "" H 2400 6050 50  0001 C CNN
F 3 "" H 2400 6050 50  0001 C CNN
	1    2400 6050
	1    0    0    -1  
$EndComp
$Comp
L power:GND #PWR0122
U 1 1 5D221B1D
P 2750 6050
F 0 "#PWR0122" H 2750 5800 50  0001 C CNN
F 1 "GND" H 2755 5877 50  0000 C CNN
F 2 "" H 2750 6050 50  0001 C CNN
F 3 "" H 2750 6050 50  0001 C CNN
	1    2750 6050
	1    0    0    -1  
$EndComp
$Comp
L power:GND #PWR0123
U 1 1 5D221D77
P 3100 6050
F 0 "#PWR0123" H 3100 5800 50  0001 C CNN
F 1 "GND" H 3105 5877 50  0000 C CNN
F 2 "" H 3100 6050 50  0001 C CNN
F 3 "" H 3100 6050 50  0001 C CNN
	1    3100 6050
	1    0    0    -1  
$EndComp
Wire Wire Line
	2400 6050 2400 6000
Wire Wire Line
	2750 6050 2750 6000
Wire Wire Line
	3100 6050 3100 6000
Wire Wire Line
	2400 5700 2400 5550
Wire Wire Line
	2400 5550 2200 5550
Wire Wire Line
	2200 5450 2750 5450
Wire Wire Line
	3100 5450 3100 5700
Wire Wire Line
	2750 5700 2750 5450
Connection ~ 2750 5450
Wire Wire Line
	2750 5450 3100 5450
$Comp
L power:+2V5 #PWR0124
U 1 1 5D226D7E
P 3100 5350
F 0 "#PWR0124" H 3100 5200 50  0001 C CNN
F 1 "+2V5" H 3115 5523 50  0000 C CNN
F 2 "" H 3100 5350 50  0001 C CNN
F 3 "" H 3100 5350 50  0001 C CNN
	1    3100 5350
	1    0    0    -1  
$EndComp
Wire Wire Line
	3100 5450 3100 5350
Connection ~ 3100 5450
$Comp
L power:+2V5 #PWR0125
U 1 1 5D22C35A
P 5050 1400
F 0 "#PWR0125" H 5050 1250 50  0001 C CNN
F 1 "+2V5" H 5065 1573 50  0000 C CNN
F 2 "" H 5050 1400 50  0001 C CNN
F 3 "" H 5050 1400 50  0001 C CNN
	1    5050 1400
	1    0    0    -1  
$EndComp
Wire Wire Line
	5150 1600 5050 1600
Wire Wire Line
	5050 1600 5050 1400
$Comp
L Connector:USB_B_Micro J5
U 1 1 5D22E9DF
P 8150 5200
F 0 "J5" H 8207 5667 50  0000 C CNN
F 1 "USB_B_Micro" H 8207 5576 50  0000 C CNN
F 2 "custom_footprints:MICRO-USB-B-10103594-0001LF" H 8300 5150 50  0001 C CNN
F 3 "~" H 8300 5150 50  0001 C CNN
	1    8150 5200
	-1   0    0    -1  
$EndComp
$Comp
L Device:C C10
U 1 1 5D21DBAA
P 7550 5700
F 0 "C10" H 7350 5650 50  0000 L CNN
F 1 "4u7" H 7300 5750 50  0000 L CNN
F 2 "Capacitors_SMD:C_0805" H 7588 5550 50  0001 C CNN
F 3 "~" H 7550 5700 50  0001 C CNN
	1    7550 5700
	-1   0    0    1   
$EndComp
Wire Wire Line
	6200 5000 7550 5000
$Comp
L power:GND #PWR0126
U 1 1 5D224394
P 7550 5850
F 0 "#PWR0126" H 7550 5600 50  0001 C CNN
F 1 "GND" H 7555 5677 50  0000 C CNN
F 2 "" H 7550 5850 50  0001 C CNN
F 3 "" H 7550 5850 50  0001 C CNN
	1    7550 5850
	1    0    0    -1  
$EndComp
Wire Wire Line
	7550 5550 7550 5500
Connection ~ 7550 5000
Wire Wire Line
	7550 5000 7850 5000
$Comp
L Device:C C8
U 1 1 5D225A9D
P 6750 5450
F 0 "C8" H 6550 5400 50  0000 L CNN
F 1 "1u" H 6500 5500 50  0000 L CNN
F 2 "Capacitors_SMD:C_0805" H 6788 5300 50  0001 C CNN
F 3 "~" H 6750 5450 50  0001 C CNN
	1    6750 5450
	-1   0    0    1   
$EndComp
$Comp
L custom_symbols:EFM32HG309 U3
U 1 1 5D228D10
P 5100 6150
F 0 "U3" H 5550 7545 60  0000 C CNN
F 1 "EFM32HG309" H 5550 7440 59  0000 C CNN
F 2 "Housings_DFN_QFN:QFN-24-1EP_5x5mm_Pitch0.65mm" H 5050 5700 60  0001 C CNN
F 3 "" H 5050 5700 60  0000 C CNN
	1    5100 6150
	1    0    0    -1  
$EndComp
Wire Wire Line
	6750 5300 6200 5300
$Comp
L power:GND #PWR0127
U 1 1 5D22C130
P 6750 5850
F 0 "#PWR0127" H 6750 5600 50  0001 C CNN
F 1 "GND" H 6755 5677 50  0000 C CNN
F 2 "" H 6750 5850 50  0001 C CNN
F 3 "" H 6750 5850 50  0001 C CNN
	1    6750 5850
	1    0    0    -1  
$EndComp
Wire Wire Line
	6750 5850 6750 5600
$Comp
L Device:R R5
U 1 1 5D22DC66
P 6900 5100
F 0 "R5" V 6693 5100 50  0000 C CNN
F 1 "15" V 6784 5100 50  0000 C CNN
F 2 "Resistors_SMD:R_0603" V 6830 5100 50  0001 C CNN
F 3 "~" H 6900 5100 50  0001 C CNN
	1    6900 5100
	0    1    1    0   
$EndComp
Wire Wire Line
	6200 5100 6750 5100
Wire Wire Line
	7050 5100 7750 5100
Wire Wire Line
	7750 5100 7750 5300
Wire Wire Line
	7750 5300 7850 5300
$Comp
L Device:R R4
U 1 1 5D231699
P 6600 5200
F 0 "R4" V 6393 5200 50  0000 C CNN
F 1 "15" V 6484 5200 50  0000 C CNN
F 2 "Resistors_SMD:R_0603" V 6530 5200 50  0001 C CNN
F 3 "~" H 6600 5200 50  0001 C CNN
	1    6600 5200
	0    1    1    0   
$EndComp
Wire Wire Line
	7850 5200 6750 5200
Wire Wire Line
	6450 5200 6200 5200
$Comp
L power:GND #PWR0128
U 1 1 5D2344FE
P 8150 5850
F 0 "#PWR0128" H 8150 5600 50  0001 C CNN
F 1 "GND" H 8155 5677 50  0000 C CNN
F 2 "" H 8150 5850 50  0001 C CNN
F 3 "" H 8150 5850 50  0001 C CNN
	1    8150 5850
	1    0    0    -1  
$EndComp
$Comp
L custom_symbols:ADG936_TSSOP U5
U 1 1 5D237FF1
P 5750 2450
F 0 "U5" H 5750 3625 50  0000 C CNN
F 1 "ADG936_TSSOP" H 5750 3534 50  0000 C CNN
F 2 "Housings_SSOP:TSSOP-20_4.4x6.5mm_Pitch0.65mm" H 5800 2350 50  0001 C CNN
F 3 "https://www.analog.com/media/en/technical-documentation/data-sheets/ADG936_936R.pdf" H 5800 2350 50  0001 C CNN
	1    5750 2450
	1    0    0    -1  
$EndComp
$Comp
L power:GND #PWR0129
U 1 1 5D23B1E2
P 6300 6350
F 0 "#PWR0129" H 6300 6100 50  0001 C CNN
F 1 "GND" H 6305 6177 50  0000 C CNN
F 2 "" H 6300 6350 50  0001 C CNN
F 3 "" H 6300 6350 50  0001 C CNN
	1    6300 6350
	1    0    0    -1  
$EndComp
Wire Wire Line
	5150 2100 3650 2100
$Comp
L custom_symbols:DBTC16-282LX+ T1
U 1 1 5D2449EF
P 3850 2050
F 0 "T1" H 4200 2525 50  0000 C CNN
F 1 "DBTC16-282LX+" H 4200 2434 50  0000 C CNN
F 2 "custom_footprints:Minicircuits_AT1642" H 4450 1200 50  0001 C CNN
F 3 "../datasheets/DBTC16-282LX+.pdf" H 4450 1200 50  0001 C CNN
	1    3850 2050
	1    0    0    -1  
$EndComp
$Comp
L custom_symbols:DBTC16-282LX+ T2
U 1 1 5D246F83
P 7650 2050
F 0 "T2" H 8000 2525 50  0000 C CNN
F 1 "DBTC16-282LX+" H 8000 2434 50  0000 C CNN
F 2 "custom_footprints:Minicircuits_AT1642" H 8250 1200 50  0001 C CNN
F 3 "../datasheets/DBTC16-282LX+.pdf" H 8250 1200 50  0001 C CNN
	1    7650 2050
	-1   0    0    -1  
$EndComp
Wire Wire Line
	8150 5600 8150 5700
Wire Wire Line
	8250 5700 8250 5600
Wire Wire Line
	8250 5700 8150 5700
Connection ~ 8150 5700
Wire Wire Line
	8150 5700 8150 5850
NoConn ~ 7850 5400
$Comp
L power:+5V #PWR0130
U 1 1 5D251592
P 7550 4900
F 0 "#PWR0130" H 7550 4750 50  0001 C CNN
F 1 "+5V" H 7565 5073 50  0000 C CNN
F 2 "" H 7550 4900 50  0001 C CNN
F 3 "" H 7550 4900 50  0001 C CNN
	1    7550 4900
	1    0    0    -1  
$EndComp
Wire Wire Line
	7550 5000 7550 4900
Wire Wire Line
	6750 5300 6950 5300
Connection ~ 6750 5300
$Comp
L power:+3V3 #PWR0131
U 1 1 5D25582E
P 6950 5300
F 0 "#PWR0131" H 6950 5150 50  0001 C CNN
F 1 "+3V3" V 6965 5428 50  0000 L CNN
F 2 "" H 6950 5300 50  0001 C CNN
F 3 "" H 6950 5300 50  0001 C CNN
	1    6950 5300
	0    1    1    0   
$EndComp
Text Notes 7100 5450 0    50   ~ 0
(unused)
Wire Wire Line
	6300 6100 6200 6100
NoConn ~ 6200 6200
$Comp
L Device:C C7
U 1 1 5D259ABE
P 6550 6200
F 0 "C7" H 6350 6150 50  0000 L CNN
F 1 "1u" H 6300 6250 50  0000 L CNN
F 2 "Capacitors_SMD:C_0805" H 6588 6050 50  0001 C CNN
F 3 "~" H 6550 6200 50  0001 C CNN
	1    6550 6200
	-1   0    0    1   
$EndComp
$Comp
L power:GND #PWR0132
U 1 1 5D25A12C
P 6550 6350
F 0 "#PWR0132" H 6550 6100 50  0001 C CNN
F 1 "GND" H 6555 6177 50  0000 C CNN
F 2 "" H 6550 6350 50  0001 C CNN
F 3 "" H 6550 6350 50  0001 C CNN
	1    6550 6350
	1    0    0    -1  
$EndComp
Wire Wire Line
	6300 6100 6300 6350
Wire Wire Line
	6200 6000 6550 6000
Wire Wire Line
	6550 6000 6550 6050
Wire Wire Line
	6200 5900 6300 5900
Wire Wire Line
	6300 5900 6300 5800
Wire Wire Line
	6300 5500 6200 5500
Wire Wire Line
	6200 5600 6300 5600
Connection ~ 6300 5600
Wire Wire Line
	6300 5600 6300 5500
Wire Wire Line
	6200 5700 6300 5700
Connection ~ 6300 5700
Wire Wire Line
	6300 5700 6300 5600
Wire Wire Line
	6200 5800 6300 5800
Connection ~ 6300 5800
Wire Wire Line
	6300 5800 6300 5700
$Comp
L power:+2V5 #PWR0133
U 1 1 5D265221
P 6450 5700
F 0 "#PWR0133" H 6450 5550 50  0001 C CNN
F 1 "+2V5" H 6465 5873 50  0000 C CNN
F 2 "" H 6450 5700 50  0001 C CNN
F 3 "" H 6450 5700 50  0001 C CNN
	1    6450 5700
	1    0    0    -1  
$EndComp
Wire Wire Line
	6450 5700 6300 5700
$Comp
L Connector:Conn_01x04_Female J3
U 1 1 5D2686CC
P 5300 7100
F 0 "J3" H 5250 6800 50  0000 C CNN
F 1 "DEBUG" V 5350 7050 50  0000 C CNN
F 2 "Pin_Headers:Pin_Header_Straight_1x04_Pitch2.54mm" H 5300 7100 50  0001 C CNN
F 3 "~" H 5300 7100 50  0001 C CNN
	1    5300 7100
	-1   0    0    1   
$EndComp
$Comp
L power:+2V5 #PWR0134
U 1 1 5D26BD77
P 5600 6900
F 0 "#PWR0134" H 5600 6750 50  0001 C CNN
F 1 "+2V5" H 5615 7073 50  0000 C CNN
F 2 "" H 5600 6900 50  0001 C CNN
F 3 "" H 5600 6900 50  0001 C CNN
	1    5600 6900
	1    0    0    -1  
$EndComp
$Comp
L power:GND #PWR0135
U 1 1 5D26C270
P 5600 7200
F 0 "#PWR0135" H 5600 6950 50  0001 C CNN
F 1 "GND" H 5605 7027 50  0000 C CNN
F 2 "" H 5600 7200 50  0001 C CNN
F 3 "" H 5600 7200 50  0001 C CNN
	1    5600 7200
	1    0    0    -1  
$EndComp
Wire Wire Line
	5500 6900 5600 6900
Wire Wire Line
	5500 7200 5600 7200
Text Label 5600 7000 0    50   ~ 0
SWCLK
Text Label 5600 7100 0    50   ~ 0
SWDIO
Wire Wire Line
	5600 7000 5500 7000
Wire Wire Line
	5600 7100 5500 7100
Text Label 4550 6000 0    50   ~ 0
SWCLK
Text Label 4550 6100 0    50   ~ 0
SWDIO
Wire Wire Line
	4900 6000 4550 6000
Wire Wire Line
	4900 6100 4550 6100
$Comp
L Device:C C9
U 1 1 5D280A65
P 7150 5700
F 0 "C9" H 6950 5650 50  0000 L CNN
F 1 "47u" H 6900 5750 50  0000 L CNN
F 2 "Capacitors_SMD:C_1206" H 7188 5550 50  0001 C CNN
F 3 "~" H 7150 5700 50  0001 C CNN
	1    7150 5700
	-1   0    0    1   
$EndComp
$Comp
L power:GND #PWR0136
U 1 1 5D28112F
P 7150 5850
F 0 "#PWR0136" H 7150 5600 50  0001 C CNN
F 1 "GND" H 7155 5677 50  0000 C CNN
F 2 "" H 7150 5850 50  0001 C CNN
F 3 "" H 7150 5850 50  0001 C CNN
	1    7150 5850
	1    0    0    -1  
$EndComp
Wire Wire Line
	7150 5550 7150 5500
Wire Wire Line
	7150 5500 7550 5500
Connection ~ 7550 5500
Wire Wire Line
	7550 5500 7550 5000
Wire Wire Line
	6350 1600 6550 1600
Wire Wire Line
	6350 2300 6550 2300
Text Label 6550 1600 0    50   ~ 0
SW_TX
Text Label 6550 2300 0    50   ~ 0
SW_RX
Text Label 4600 5200 0    50   ~ 0
SW_TX
Text Label 4600 5300 0    50   ~ 0
SW_RX
Wire Wire Line
	4900 5200 4600 5200
Wire Wire Line
	4600 5300 4900 5300
$Comp
L RF:LAT-3 U2
U 1 1 5D290EDD
P 4500 2950
F 0 "U2" H 4500 3367 50  0000 C CNN
F 1 "LAT-0+" H 4500 3276 50  0000 C CNN
F 2 "custom_footprints:Mini-Circuits_MMM168_LandPatternPL-225" H 4500 2500 50  0001 C CNN
F 3 "https://ww2.minicircuits.com/pdfs/LAT-3+.pdf" H 4500 2975 50  0001 C CNN
	1    4500 2950
	1    0    0    -1  
$EndComp
$Comp
L RF:LAT-3 U4
U 1 1 5D29E7ED
P 5550 2950
F 0 "U4" H 5550 3367 50  0000 C CNN
F 1 "LAT-10+" H 5550 3276 50  0000 C CNN
F 2 "custom_footprints:Mini-Circuits_MMM168_LandPatternPL-225" H 5550 2500 50  0001 C CNN
F 3 "https://ww2.minicircuits.com/pdfs/LAT-3+.pdf" H 5550 2975 50  0001 C CNN
	1    5550 2950
	1    0    0    -1  
$EndComp
Wire Wire Line
	5150 2400 5150 2950
Wire Wire Line
	4900 1500 4900 2950
$Comp
L power:GND #PWR0137
U 1 1 5D2A4520
P 4300 3350
F 0 "#PWR0137" H 4300 3100 50  0001 C CNN
F 1 "GND" H 4305 3177 50  0000 C CNN
F 2 "" H 4300 3350 50  0001 C CNN
F 3 "" H 4300 3350 50  0001 C CNN
	1    4300 3350
	1    0    0    -1  
$EndComp
$Comp
L power:GND #PWR0138
U 1 1 5D2A4C25
P 5350 3350
F 0 "#PWR0138" H 5350 3100 50  0001 C CNN
F 1 "GND" H 5355 3177 50  0000 C CNN
F 2 "" H 5350 3350 50  0001 C CNN
F 3 "" H 5350 3350 50  0001 C CNN
	1    5350 3350
	1    0    0    -1  
$EndComp
$Comp
L Connector:Conn_Coaxial J2
U 1 1 5D2A50CF
P 3700 2950
F 0 "J2" H 3700 3200 50  0000 C CNN
F 1 "SMA" H 3700 3100 50  0000 C CNN
F 2 "custom_footprints:CON_SMA_EDGE_S" H 3700 2950 50  0001 C CNN
F 3 " ~" H 3700 2950 50  0001 C CNN
	1    3700 2950
	-1   0    0    -1  
$EndComp
$Comp
L power:GND #PWR0139
U 1 1 5D2A5B85
P 3700 3350
F 0 "#PWR0139" H 3700 3100 50  0001 C CNN
F 1 "GND" H 3705 3177 50  0000 C CNN
F 2 "" H 3700 3350 50  0001 C CNN
F 3 "" H 3700 3350 50  0001 C CNN
	1    3700 3350
	1    0    0    -1  
$EndComp
Wire Wire Line
	3700 3350 3700 3150
Wire Wire Line
	3900 2950 4100 2950
$Comp
L Connector:Conn_Coaxial J4
U 1 1 5D2AC1DC
P 6450 2950
F 0 "J4" H 6450 3200 50  0000 C CNN
F 1 "SMA" H 6450 3100 50  0000 C CNN
F 2 "custom_footprints:CON_SMA_EDGE_S" H 6450 2950 50  0001 C CNN
F 3 " ~" H 6450 2950 50  0001 C CNN
	1    6450 2950
	1    0    0    -1  
$EndComp
$Comp
L power:GND #PWR0140
U 1 1 5D2ACDB2
P 6450 3350
F 0 "#PWR0140" H 6450 3100 50  0001 C CNN
F 1 "GND" H 6455 3177 50  0000 C CNN
F 2 "" H 6450 3350 50  0001 C CNN
F 3 "" H 6450 3350 50  0001 C CNN
	1    6450 3350
	1    0    0    -1  
$EndComp
Wire Wire Line
	6450 3350 6450 3150
Wire Wire Line
	6250 2950 5950 2950
Text Notes 3000 2950 0    50   ~ 0
TX (from SDR)
Text Notes 6600 2950 0    50   ~ 0
RX (to SDR)
Text Notes 1550 1850 0    50   ~ 0
DUT PORT 1
Text Notes 9500 1850 0    50   ~ 0
DUT PORT 2
$Comp
L Device:R R3
U 1 1 5D2D14F6
P 4400 5000
F 0 "R3" V 4193 5000 50  0000 C CNN
F 1 "100" V 4284 5000 50  0000 C CNN
F 2 "Resistors_SMD:R_0603" V 4330 5000 50  0001 C CNN
F 3 "~" H 4400 5000 50  0001 C CNN
	1    4400 5000
	0    1    1    0   
$EndComp
$Comp
L Device:R R2
U 1 1 5D2D23F6
P 4100 5100
F 0 "R2" V 3893 5100 50  0000 C CNN
F 1 "100" V 3984 5100 50  0000 C CNN
F 2 "Resistors_SMD:R_0603" V 4030 5100 50  0001 C CNN
F 3 "~" H 4100 5100 50  0001 C CNN
	1    4100 5100
	0    1    1    0   
$EndComp
Wire Wire Line
	4900 5000 4550 5000
Wire Wire Line
	4900 5100 4250 5100
$Comp
L Device:LED D2
U 1 1 5D2D8F27
P 3950 4550
F 0 "D2" V 4000 4750 50  0000 R CNN
F 1 "LED" V 3900 4800 50  0000 R CNN
F 2 "Diodes_SMD:D_0805" H 3950 4550 50  0001 C CNN
F 3 "~" H 3950 4550 50  0001 C CNN
	1    3950 4550
	0    -1   -1   0   
$EndComp
$Comp
L Device:LED D3
U 1 1 5D2D9EC4
P 4250 4550
F 0 "D3" V 4289 4433 50  0000 R CNN
F 1 "LED" V 4198 4433 50  0000 R CNN
F 2 "Diodes_SMD:D_0805" H 4250 4550 50  0001 C CNN
F 3 "~" H 4250 4550 50  0001 C CNN
	1    4250 4550
	0    -1   -1   0   
$EndComp
Wire Wire Line
	3950 5100 3950 4700
Wire Wire Line
	4250 5000 4250 4700
Wire Wire Line
	4250 4400 4250 4350
Wire Wire Line
	4250 4350 4100 4350
Wire Wire Line
	3950 4350 3950 4400
$Comp
L power:+2V5 #PWR0141
U 1 1 5D2E40B0
P 4100 4300
F 0 "#PWR0141" H 4100 4150 50  0001 C CNN
F 1 "+2V5" H 4115 4473 50  0000 C CNN
F 2 "" H 4100 4300 50  0001 C CNN
F 3 "" H 4100 4300 50  0001 C CNN
	1    4100 4300
	1    0    0    -1  
$EndComp
Wire Wire Line
	4100 4300 4100 4350
Connection ~ 4100 4350
Wire Wire Line
	4100 4350 3950 4350
Text Label 2800 1000 0    50   ~ 0
PIN_BIAS_P1
Wire Wire Line
	2950 1000 2800 1000
Wire Wire Line
	2950 1050 2950 1000
Wire Wire Line
	2950 1400 2950 1350
$Comp
L Device:R R1
U 1 1 5D258E8C
P 2950 1200
F 0 "R1" H 3020 1246 50  0000 L CNN
F 1 "1K" H 3020 1155 50  0000 L CNN
F 2 "Resistors_SMD:R_0402" V 2880 1200 50  0001 C CNN
F 3 "~" H 2950 1200 50  0001 C CNN
	1    2950 1200
	1    0    0    -1  
$EndComp
Text Label 4400 5400 0    50   ~ 0
PIN_BIAS_P1
Wire Wire Line
	4400 5400 4900 5400
Text Label 4400 5500 0    50   ~ 0
PIN_BIAS_P2
Wire Wire Line
	4400 5500 4900 5500
$Comp
L Device:C C13
U 1 1 5D3883F6
P 7550 3050
F 0 "C13" H 7350 3000 50  0000 L CNN
F 1 "1u" H 7350 3100 50  0000 L CNN
F 2 "Capacitors_SMD:C_0805" H 7588 2900 50  0001 C CNN
F 3 "~" H 7550 3050 50  0001 C CNN
	1    7550 3050
	-1   0    0    1   
$EndComp
$Comp
L power:GND #PWR02
U 1 1 5D3883FC
P 7550 3350
F 0 "#PWR02" H 7550 3100 50  0001 C CNN
F 1 "GND" H 7555 3177 50  0000 C CNN
F 2 "" H 7550 3350 50  0001 C CNN
F 3 "" H 7550 3350 50  0001 C CNN
	1    7550 3350
	1    0    0    -1  
$EndComp
$Comp
L power:+2V5 #PWR01
U 1 1 5D388405
P 7550 2800
F 0 "#PWR01" H 7550 2650 50  0001 C CNN
F 1 "+2V5" H 7565 2973 50  0000 C CNN
F 2 "" H 7550 2800 50  0001 C CNN
F 3 "" H 7550 2800 50  0001 C CNN
	1    7550 2800
	1    0    0    -1  
$EndComp
Wire Wire Line
	7550 2900 7550 2850
Wire Wire Line
	7550 3200 7550 3250
$Comp
L Device:C C14
U 1 1 5D39BE51
P 7900 3050
F 0 "C14" H 7700 3000 50  0000 L CNN
F 1 "100n" H 7700 3100 50  0000 L CNN
F 2 "Capacitors_SMD:C_0805" H 7938 2900 50  0001 C CNN
F 3 "~" H 7900 3050 50  0001 C CNN
	1    7900 3050
	-1   0    0    1   
$EndComp
Wire Wire Line
	7900 2900 7900 2850
Wire Wire Line
	7900 2850 7550 2850
Connection ~ 7550 2850
Wire Wire Line
	7550 2850 7550 2800
Wire Wire Line
	7900 3200 7900 3250
Wire Wire Line
	7900 3250 7550 3250
Connection ~ 7550 3250
Wire Wire Line
	7550 3250 7550 3350
$Comp
L Device:C C15
U 1 1 5D3A8C43
P 9150 5250
F 0 "C15" H 8950 5200 50  0000 L CNN
F 1 "1u" H 8950 5300 50  0000 L CNN
F 2 "Capacitors_SMD:C_0805" H 9188 5100 50  0001 C CNN
F 3 "~" H 9150 5250 50  0001 C CNN
	1    9150 5250
	-1   0    0    1   
$EndComp
$Comp
L power:GND #PWR04
U 1 1 5D3A8C49
P 9150 5550
F 0 "#PWR04" H 9150 5300 50  0001 C CNN
F 1 "GND" H 9155 5377 50  0000 C CNN
F 2 "" H 9150 5550 50  0001 C CNN
F 3 "" H 9150 5550 50  0001 C CNN
	1    9150 5550
	1    0    0    -1  
$EndComp
$Comp
L power:+2V5 #PWR03
U 1 1 5D3A8C4F
P 9150 5000
F 0 "#PWR03" H 9150 4850 50  0001 C CNN
F 1 "+2V5" H 9165 5173 50  0000 C CNN
F 2 "" H 9150 5000 50  0001 C CNN
F 3 "" H 9150 5000 50  0001 C CNN
	1    9150 5000
	1    0    0    -1  
$EndComp
Wire Wire Line
	9150 5100 9150 5050
Wire Wire Line
	9150 5400 9150 5450
$Comp
L Device:C C16
U 1 1 5D3A8C57
P 9500 5250
F 0 "C16" H 9300 5200 50  0000 L CNN
F 1 "100n" H 9300 5300 50  0000 L CNN
F 2 "Capacitors_SMD:C_0805" H 9538 5100 50  0001 C CNN
F 3 "~" H 9500 5250 50  0001 C CNN
	1    9500 5250
	-1   0    0    1   
$EndComp
Wire Wire Line
	9500 5100 9500 5050
Wire Wire Line
	9500 5050 9150 5050
Connection ~ 9150 5050
Wire Wire Line
	9150 5050 9150 5000
Wire Wire Line
	9500 5400 9500 5450
Wire Wire Line
	9500 5450 9150 5450
Connection ~ 9150 5450
Wire Wire Line
	9150 5450 9150 5550
$EndSCHEMATC
