M48
INCH,TZ
T1C0.0157
T2C0.0197
T3C0.1220
%
G90
G05
T1
X53543Y-25984
X53543Y-26378
X53543Y-26772
X53543Y-27165
X53543Y-39764
X53543Y-40157
X53543Y-40551
X53543Y-40945
X56693Y-25984
X56693Y-26378
X56693Y-26772
X56693Y-27165
X56693Y-39764
X56693Y-40157
X56693Y-40551
X56693Y-40945
T2
X65000Y-33465
X65277Y-32796
X65277Y-34133
X65945Y-32520
X65945Y-34409
X66613Y-32796
X66613Y-34133
X66890Y-33465
X59094Y-33465
X59371Y-32796
X59371Y-34133
X60039Y-32520
X60039Y-34409
X60708Y-32796
X60708Y-34133
X60984Y-33465
X62047Y-33465
X62324Y-32796
X62324Y-34133
X62992Y-32520
X62992Y-34409
X63660Y-32796
X63660Y-34133
X63937Y-33465
X82717Y-33465
X82993Y-32796
X82993Y-34133
X83661Y-32520
X83661Y-34409
X84330Y-32796
X84330Y-34133
X84606Y-33465
X56142Y-33465
X56418Y-32796
X56418Y-34133
X57087Y-32520
X57087Y-34409
X57755Y-32796
X57755Y-34133
X58031Y-33465
T3
X60039Y-33465
X62992Y-33465
X83661Y-33465
X57087Y-33465
X65945Y-33465
T0
M30
