G04 #@! TF.GenerationSoftware,KiCad,Pcbnew,5.1.5*
G04 #@! TF.CreationDate,2020-01-20T16:15:44+11:00*
G04 #@! TF.ProjectId,vnahw,766e6168-772e-46b6-9963-61645f706362,rev?*
G04 #@! TF.SameCoordinates,Original*
G04 #@! TF.FileFunction,Soldermask,Bot*
G04 #@! TF.FilePolarity,Negative*
%FSLAX46Y46*%
G04 Gerber Fmt 4.6, Leading zero omitted, Abs format (unit mm)*
G04 Created by KiCad (PCBNEW 5.1.5) date 2020-01-20 16:15:44*
%MOMM*%
%LPD*%
G04 APERTURE LIST*
%ADD10C,0.100000*%
G04 APERTURE END LIST*
D10*
G36*
X128397617Y-114238420D02*
G01*
X128488403Y-114265960D01*
X128520335Y-114275646D01*
X128633424Y-114336094D01*
X128732554Y-114417447D01*
X128813906Y-114516575D01*
X128874354Y-114629664D01*
X128883764Y-114660685D01*
X128911580Y-114752382D01*
X128921000Y-114848027D01*
X128921000Y-115411973D01*
X128911580Y-115507618D01*
X128898823Y-115549671D01*
X128874354Y-115630336D01*
X128813906Y-115743425D01*
X128732554Y-115842554D01*
X128633425Y-115923906D01*
X128520336Y-115984354D01*
X128488404Y-115994040D01*
X128397618Y-116021580D01*
X128270000Y-116034149D01*
X128142383Y-116021580D01*
X128051597Y-115994040D01*
X128019665Y-115984354D01*
X127906576Y-115923906D01*
X127807447Y-115842553D01*
X127726094Y-115743425D01*
X127665646Y-115630336D01*
X127641177Y-115549671D01*
X127628420Y-115507618D01*
X127619000Y-115411973D01*
X127619000Y-114848028D01*
X127628420Y-114752383D01*
X127665645Y-114629669D01*
X127665646Y-114629665D01*
X127726094Y-114516576D01*
X127807447Y-114417446D01*
X127906575Y-114336094D01*
X128019664Y-114275646D01*
X128051596Y-114265960D01*
X128142382Y-114238420D01*
X128270000Y-114225851D01*
X128397617Y-114238420D01*
G37*
G36*
X133857617Y-114238420D02*
G01*
X133948403Y-114265960D01*
X133980335Y-114275646D01*
X134093424Y-114336094D01*
X134192554Y-114417447D01*
X134273906Y-114516575D01*
X134334354Y-114629664D01*
X134343764Y-114660685D01*
X134371580Y-114752382D01*
X134381000Y-114848027D01*
X134381000Y-115411973D01*
X134371580Y-115507618D01*
X134358823Y-115549671D01*
X134334354Y-115630336D01*
X134273906Y-115743425D01*
X134192554Y-115842554D01*
X134093425Y-115923906D01*
X133980336Y-115984354D01*
X133948404Y-115994040D01*
X133857618Y-116021580D01*
X133730000Y-116034149D01*
X133602383Y-116021580D01*
X133511597Y-115994040D01*
X133479665Y-115984354D01*
X133366576Y-115923906D01*
X133267447Y-115842553D01*
X133186094Y-115743425D01*
X133125646Y-115630336D01*
X133101177Y-115549671D01*
X133088420Y-115507618D01*
X133079000Y-115411973D01*
X133079000Y-114848028D01*
X133088420Y-114752383D01*
X133125645Y-114629669D01*
X133125646Y-114629665D01*
X133186094Y-114516576D01*
X133267447Y-114417446D01*
X133366575Y-114336094D01*
X133479664Y-114275646D01*
X133511596Y-114265960D01*
X133602382Y-114238420D01*
X133730000Y-114225851D01*
X133857617Y-114238420D01*
G37*
G36*
X139384239Y-109561467D02*
G01*
X139698282Y-109623934D01*
X140289926Y-109869001D01*
X140822392Y-110224784D01*
X141275216Y-110677608D01*
X141630999Y-111210074D01*
X141876066Y-111801718D01*
X141878148Y-111812184D01*
X142001000Y-112429803D01*
X142001000Y-113070197D01*
X141938533Y-113384239D01*
X141876066Y-113698282D01*
X141630999Y-114289926D01*
X141275216Y-114822392D01*
X140822392Y-115275216D01*
X140289926Y-115630999D01*
X139698282Y-115876066D01*
X139457779Y-115923905D01*
X139070197Y-116001000D01*
X138429803Y-116001000D01*
X138042221Y-115923905D01*
X137801718Y-115876066D01*
X137210074Y-115630999D01*
X136677608Y-115275216D01*
X136224784Y-114822392D01*
X135869001Y-114289926D01*
X135623934Y-113698282D01*
X135561467Y-113384239D01*
X135499000Y-113070197D01*
X135499000Y-112429803D01*
X135621852Y-111812184D01*
X135623934Y-111801718D01*
X135869001Y-111210074D01*
X136224784Y-110677608D01*
X136677608Y-110224784D01*
X137210074Y-109869001D01*
X137801718Y-109623934D01*
X138115761Y-109561467D01*
X138429803Y-109499000D01*
X139070197Y-109499000D01*
X139384239Y-109561467D01*
G37*
G36*
X114634239Y-109561467D02*
G01*
X114948282Y-109623934D01*
X115539926Y-109869001D01*
X116072392Y-110224784D01*
X116525216Y-110677608D01*
X116880999Y-111210074D01*
X117126066Y-111801718D01*
X117128148Y-111812184D01*
X117251000Y-112429803D01*
X117251000Y-113070197D01*
X117188533Y-113384239D01*
X117126066Y-113698282D01*
X116880999Y-114289926D01*
X116525216Y-114822392D01*
X116072392Y-115275216D01*
X115539926Y-115630999D01*
X114948282Y-115876066D01*
X114707779Y-115923905D01*
X114320197Y-116001000D01*
X113679803Y-116001000D01*
X113292221Y-115923905D01*
X113051718Y-115876066D01*
X112460074Y-115630999D01*
X111927608Y-115275216D01*
X111474784Y-114822392D01*
X111119001Y-114289926D01*
X110873934Y-113698282D01*
X110811467Y-113384239D01*
X110749000Y-113070197D01*
X110749000Y-112429803D01*
X110871852Y-111812184D01*
X110873934Y-111801718D01*
X111119001Y-111210074D01*
X111474784Y-110677608D01*
X111927608Y-110224784D01*
X112460074Y-109869001D01*
X113051718Y-109623934D01*
X113365761Y-109561467D01*
X113679803Y-109499000D01*
X114320197Y-109499000D01*
X114634239Y-109561467D01*
G37*
G36*
X128697817Y-111337696D02*
G01*
X128811104Y-111372062D01*
X128915511Y-111427869D01*
X128915513Y-111427870D01*
X128915512Y-111427870D01*
X129007027Y-111502973D01*
X129070711Y-111580572D01*
X129082131Y-111594488D01*
X129137938Y-111698895D01*
X129172304Y-111812182D01*
X129181000Y-111900481D01*
X129181000Y-112359518D01*
X129172304Y-112447818D01*
X129137938Y-112561105D01*
X129082131Y-112665512D01*
X129007027Y-112757027D01*
X128915512Y-112832131D01*
X128811105Y-112887938D01*
X128697818Y-112922304D01*
X128580000Y-112933907D01*
X128462183Y-112922304D01*
X128348896Y-112887938D01*
X128244489Y-112832131D01*
X128152974Y-112757027D01*
X128077869Y-112665512D01*
X128022062Y-112561105D01*
X127987696Y-112447818D01*
X127979000Y-112359519D01*
X127979000Y-111900482D01*
X127987696Y-111812183D01*
X128022062Y-111698896D01*
X128077869Y-111594489D01*
X128091338Y-111578077D01*
X128152973Y-111502973D01*
X128244487Y-111427870D01*
X128244486Y-111427870D01*
X128244488Y-111427869D01*
X128348895Y-111372062D01*
X128462182Y-111337696D01*
X128580000Y-111326093D01*
X128697817Y-111337696D01*
G37*
G36*
X133537817Y-111337696D02*
G01*
X133651104Y-111372062D01*
X133755511Y-111427869D01*
X133755513Y-111427870D01*
X133755512Y-111427870D01*
X133847027Y-111502973D01*
X133910711Y-111580572D01*
X133922131Y-111594488D01*
X133977938Y-111698895D01*
X134012304Y-111812182D01*
X134021000Y-111900481D01*
X134021000Y-112359518D01*
X134012304Y-112447818D01*
X133977938Y-112561105D01*
X133922131Y-112665512D01*
X133847027Y-112757027D01*
X133755512Y-112832131D01*
X133651105Y-112887938D01*
X133537818Y-112922304D01*
X133420000Y-112933907D01*
X133302183Y-112922304D01*
X133188896Y-112887938D01*
X133084489Y-112832131D01*
X132992974Y-112757027D01*
X132917869Y-112665512D01*
X132862062Y-112561105D01*
X132827696Y-112447818D01*
X132819000Y-112359519D01*
X132819000Y-111900482D01*
X132827696Y-111812183D01*
X132862062Y-111698896D01*
X132917869Y-111594489D01*
X132931338Y-111578077D01*
X132992973Y-111502973D01*
X133084487Y-111427870D01*
X133084486Y-111427870D01*
X133084488Y-111427869D01*
X133188895Y-111372062D01*
X133302182Y-111337696D01*
X133420000Y-111326093D01*
X133537817Y-111337696D01*
G37*
G36*
X131403512Y-105603927D02*
G01*
X131552812Y-105633624D01*
X131716784Y-105701544D01*
X131864354Y-105800147D01*
X131989853Y-105925646D01*
X132088456Y-106073216D01*
X132156376Y-106237188D01*
X132191000Y-106411259D01*
X132191000Y-106588741D01*
X132156376Y-106762812D01*
X132088456Y-106926784D01*
X131989853Y-107074354D01*
X131864354Y-107199853D01*
X131716784Y-107298456D01*
X131552812Y-107366376D01*
X131403512Y-107396073D01*
X131378742Y-107401000D01*
X131201258Y-107401000D01*
X131176488Y-107396073D01*
X131027188Y-107366376D01*
X130863216Y-107298456D01*
X130715646Y-107199853D01*
X130590147Y-107074354D01*
X130491544Y-106926784D01*
X130423624Y-106762812D01*
X130389000Y-106588741D01*
X130389000Y-106411259D01*
X130423624Y-106237188D01*
X130491544Y-106073216D01*
X130590147Y-105925646D01*
X130715646Y-105800147D01*
X130863216Y-105701544D01*
X131027188Y-105633624D01*
X131176488Y-105603927D01*
X131201258Y-105599000D01*
X131378742Y-105599000D01*
X131403512Y-105603927D01*
G37*
G36*
X133943512Y-105603927D02*
G01*
X134092812Y-105633624D01*
X134256784Y-105701544D01*
X134404354Y-105800147D01*
X134529853Y-105925646D01*
X134628456Y-106073216D01*
X134696376Y-106237188D01*
X134731000Y-106411259D01*
X134731000Y-106588741D01*
X134696376Y-106762812D01*
X134628456Y-106926784D01*
X134529853Y-107074354D01*
X134404354Y-107199853D01*
X134256784Y-107298456D01*
X134092812Y-107366376D01*
X133943512Y-107396073D01*
X133918742Y-107401000D01*
X133741258Y-107401000D01*
X133716488Y-107396073D01*
X133567188Y-107366376D01*
X133403216Y-107298456D01*
X133255646Y-107199853D01*
X133130147Y-107074354D01*
X133031544Y-106926784D01*
X132963624Y-106762812D01*
X132929000Y-106588741D01*
X132929000Y-106411259D01*
X132963624Y-106237188D01*
X133031544Y-106073216D01*
X133130147Y-105925646D01*
X133255646Y-105800147D01*
X133403216Y-105701544D01*
X133567188Y-105633624D01*
X133716488Y-105603927D01*
X133741258Y-105599000D01*
X133918742Y-105599000D01*
X133943512Y-105603927D01*
G37*
G36*
X136483512Y-105603927D02*
G01*
X136632812Y-105633624D01*
X136796784Y-105701544D01*
X136944354Y-105800147D01*
X137069853Y-105925646D01*
X137168456Y-106073216D01*
X137236376Y-106237188D01*
X137271000Y-106411259D01*
X137271000Y-106588741D01*
X137236376Y-106762812D01*
X137168456Y-106926784D01*
X137069853Y-107074354D01*
X136944354Y-107199853D01*
X136796784Y-107298456D01*
X136632812Y-107366376D01*
X136483512Y-107396073D01*
X136458742Y-107401000D01*
X136281258Y-107401000D01*
X136256488Y-107396073D01*
X136107188Y-107366376D01*
X135943216Y-107298456D01*
X135795646Y-107199853D01*
X135670147Y-107074354D01*
X135571544Y-106926784D01*
X135503624Y-106762812D01*
X135469000Y-106588741D01*
X135469000Y-106411259D01*
X135503624Y-106237188D01*
X135571544Y-106073216D01*
X135670147Y-105925646D01*
X135795646Y-105800147D01*
X135943216Y-105701544D01*
X136107188Y-105633624D01*
X136256488Y-105603927D01*
X136281258Y-105599000D01*
X136458742Y-105599000D01*
X136483512Y-105603927D01*
G37*
G36*
X129651000Y-107401000D02*
G01*
X127849000Y-107401000D01*
X127849000Y-105599000D01*
X129651000Y-105599000D01*
X129651000Y-107401000D01*
G37*
G36*
X113902200Y-105831000D02*
G01*
X109300200Y-105831000D01*
X109300200Y-103729000D01*
X113902200Y-103729000D01*
X113902200Y-105831000D01*
G37*
G36*
X143249800Y-105831000D02*
G01*
X138647800Y-105831000D01*
X138647800Y-103729000D01*
X143249800Y-103729000D01*
X143249800Y-105831000D01*
G37*
G36*
X113902200Y-100271000D02*
G01*
X109300200Y-100271000D01*
X109300200Y-98169000D01*
X113902200Y-98169000D01*
X113902200Y-100271000D01*
G37*
G36*
X143249800Y-100271000D02*
G01*
X138647800Y-100271000D01*
X138647800Y-98169000D01*
X143249800Y-98169000D01*
X143249800Y-100271000D01*
G37*
G36*
X113902200Y-91131000D02*
G01*
X109300200Y-91131000D01*
X109300200Y-89029000D01*
X113902200Y-89029000D01*
X113902200Y-91131000D01*
G37*
G36*
X143249800Y-91131000D02*
G01*
X138647800Y-91131000D01*
X138647800Y-89029000D01*
X143249800Y-89029000D01*
X143249800Y-91131000D01*
G37*
G36*
X143249800Y-85571000D02*
G01*
X138647800Y-85571000D01*
X138647800Y-83469000D01*
X143249800Y-83469000D01*
X143249800Y-85571000D01*
G37*
G36*
X113902200Y-85571000D02*
G01*
X109300200Y-85571000D01*
X109300200Y-83469000D01*
X113902200Y-83469000D01*
X113902200Y-85571000D01*
G37*
G36*
X114634239Y-75811467D02*
G01*
X114948282Y-75873934D01*
X115539926Y-76119001D01*
X116072392Y-76474784D01*
X116525216Y-76927608D01*
X116880999Y-77460074D01*
X117126066Y-78051718D01*
X117126066Y-78051719D01*
X117251000Y-78679803D01*
X117251000Y-79320197D01*
X117188533Y-79634239D01*
X117126066Y-79948282D01*
X116880999Y-80539926D01*
X116525216Y-81072392D01*
X116072392Y-81525216D01*
X115539926Y-81880999D01*
X114948282Y-82126066D01*
X114634239Y-82188533D01*
X114320197Y-82251000D01*
X113679803Y-82251000D01*
X113365761Y-82188533D01*
X113051718Y-82126066D01*
X112460074Y-81880999D01*
X111927608Y-81525216D01*
X111474784Y-81072392D01*
X111119001Y-80539926D01*
X110873934Y-79948282D01*
X110811467Y-79634239D01*
X110749000Y-79320197D01*
X110749000Y-78679803D01*
X110873934Y-78051719D01*
X110873934Y-78051718D01*
X111119001Y-77460074D01*
X111474784Y-76927608D01*
X111927608Y-76474784D01*
X112460074Y-76119001D01*
X113051718Y-75873934D01*
X113365761Y-75811467D01*
X113679803Y-75749000D01*
X114320197Y-75749000D01*
X114634239Y-75811467D01*
G37*
G36*
X139384239Y-75811467D02*
G01*
X139698282Y-75873934D01*
X140289926Y-76119001D01*
X140822392Y-76474784D01*
X141275216Y-76927608D01*
X141630999Y-77460074D01*
X141876066Y-78051718D01*
X141876066Y-78051719D01*
X142001000Y-78679803D01*
X142001000Y-79320197D01*
X141938533Y-79634239D01*
X141876066Y-79948282D01*
X141630999Y-80539926D01*
X141275216Y-81072392D01*
X140822392Y-81525216D01*
X140289926Y-81880999D01*
X139698282Y-82126066D01*
X139384239Y-82188533D01*
X139070197Y-82251000D01*
X138429803Y-82251000D01*
X138115761Y-82188533D01*
X137801718Y-82126066D01*
X137210074Y-81880999D01*
X136677608Y-81525216D01*
X136224784Y-81072392D01*
X135869001Y-80539926D01*
X135623934Y-79948282D01*
X135561467Y-79634239D01*
X135499000Y-79320197D01*
X135499000Y-78679803D01*
X135623934Y-78051719D01*
X135623934Y-78051718D01*
X135869001Y-77460074D01*
X136224784Y-76927608D01*
X136677608Y-76474784D01*
X137210074Y-76119001D01*
X137801718Y-75873934D01*
X138115761Y-75811467D01*
X138429803Y-75749000D01*
X139070197Y-75749000D01*
X139384239Y-75811467D01*
G37*
M02*
