EESchema Schematic File Version 4
EELAYER 29 0
EELAYER END
$Descr A4 11693 8268
encoding utf-8
Sheet 1 1
Title ""
Date ""
Rev ""
Comp ""
Comment1 ""
Comment2 ""
Comment3 ""
Comment4 ""
$EndDescr
$Comp
L custom_symbols:DBTC16-282LX+ T1
U 1 1 5C8CC7E6
P 5700 3650
F 0 "T1" H 6050 4125 50  0000 C CNN
F 1 "DBTC16-282LX+" H 6050 4034 50  0000 C CNN
F 2 "custom_footprints:Minicircuits_AT1642" H 6300 2800 50  0001 C CNN
F 3 "" H 6300 2800 50  0001 C CNN
	1    5700 3650
	1    0    0    -1  
$EndComp
NoConn ~ 6600 3600
$Comp
L power:GND #PWR0101
U 1 1 5C8CC964
P 5100 3500
F 0 "#PWR0101" H 5100 3250 50  0001 C CNN
F 1 "GND" H 5105 3327 50  0000 C CNN
F 2 "" H 5100 3500 50  0001 C CNN
F 3 "" H 5100 3500 50  0001 C CNN
	1    5100 3500
	1    0    0    -1  
$EndComp
Wire Wire Line
	5100 3500 5500 3500
$Comp
L Connector:Conn_Coaxial J1
U 1 1 5C8CCA58
P 4300 3400
F 0 "J1" H 4300 3650 50  0000 C CNN
F 1 "SMA" H 4300 3550 50  0000 C CNN
F 2 "custom_footprints:CON_SMA_EDGE_S" H 4300 3400 50  0001 C CNN
F 3 " ~" H 4300 3400 50  0001 C CNN
	1    4300 3400
	-1   0    0    -1  
$EndComp
$Comp
L Connector:Conn_Coaxial J3
U 1 1 5C8CCBAB
P 7550 3400
F 0 "J3" H 7550 3650 50  0000 L CNN
F 1 "SMA" H 7500 3550 50  0000 L CNN
F 2 "custom_footprints:CON_SMA_EDGE_S" H 7550 3400 50  0001 C CNN
F 3 " ~" H 7550 3400 50  0001 C CNN
	1    7550 3400
	1    0    0    -1  
$EndComp
$Comp
L Connector:Conn_Coaxial J2
U 1 1 5C8CCC86
P 4300 4200
F 0 "J2" H 4300 4450 50  0000 C CNN
F 1 "SMA" H 4300 4350 50  0000 C CNN
F 2 "custom_footprints:CON_SMA_EDGE_S" H 4300 4200 50  0001 C CNN
F 3 " ~" H 4300 4200 50  0001 C CNN
	1    4300 4200
	-1   0    0    -1  
$EndComp
Wire Wire Line
	5500 3400 4500 3400
Wire Wire Line
	6600 3400 7350 3400
$Comp
L power:GND #PWR0102
U 1 1 5C8CCD95
P 4300 3600
F 0 "#PWR0102" H 4300 3350 50  0001 C CNN
F 1 "GND" H 4305 3427 50  0000 C CNN
F 2 "" H 4300 3600 50  0001 C CNN
F 3 "" H 4300 3600 50  0001 C CNN
	1    4300 3600
	1    0    0    -1  
$EndComp
$Comp
L power:GND #PWR0103
U 1 1 5C8CCDA8
P 4300 4400
F 0 "#PWR0103" H 4300 4150 50  0001 C CNN
F 1 "GND" H 4305 4227 50  0000 C CNN
F 2 "" H 4300 4400 50  0001 C CNN
F 3 "" H 4300 4400 50  0001 C CNN
	1    4300 4400
	1    0    0    -1  
$EndComp
Wire Wire Line
	5500 4200 5500 3600
Wire Wire Line
	4500 4200 5500 4200
$Comp
L power:GND #PWR0104
U 1 1 5C8CCDF4
P 7550 3600
F 0 "#PWR0104" H 7550 3350 50  0001 C CNN
F 1 "GND" H 7555 3427 50  0000 C CNN
F 2 "" H 7550 3600 50  0001 C CNN
F 3 "" H 7550 3600 50  0001 C CNN
	1    7550 3600
	1    0    0    -1  
$EndComp
$EndSCHEMATC
