G04 #@! TF.GenerationSoftware,KiCad,Pcbnew,5.0.1*
G04 #@! TF.CreationDate,2019-03-23T17:42:54-07:00*
G04 #@! TF.ProjectId,coupler_breakout,636F75706C65725F627265616B6F7574,rev?*
G04 #@! TF.SameCoordinates,Original*
G04 #@! TF.FileFunction,Soldermask,Top*
G04 #@! TF.FilePolarity,Negative*
%FSLAX46Y46*%
G04 Gerber Fmt 4.6, Leading zero omitted, Abs format (unit mm)*
G04 Created by KiCad (PCBNEW 5.0.1) date Sat 23 Mar 2019 17:42:54 PDT*
%MOMM*%
%LPD*%
G01*
G04 APERTURE LIST*
%ADD10C,0.200000*%
%ADD11C,0.150000*%
%ADD12C,0.100000*%
G04 APERTURE END LIST*
D10*
X133699999Y-73828571D02*
X133509523Y-73828571D01*
X133509523Y-72685714D01*
X133699999Y-72685714D01*
X134004761Y-73561904D02*
X134004761Y-72761904D01*
X134195238Y-72761904D01*
X134309523Y-72800000D01*
X134385714Y-72876190D01*
X134423809Y-72952380D01*
X134461904Y-73104761D01*
X134461904Y-73219047D01*
X134423809Y-73371428D01*
X134385714Y-73447619D01*
X134309523Y-73523809D01*
X134195238Y-73561904D01*
X134004761Y-73561904D01*
X135071428Y-73142857D02*
X135185714Y-73180952D01*
X135223809Y-73219047D01*
X135261904Y-73295238D01*
X135261904Y-73409523D01*
X135223809Y-73485714D01*
X135185714Y-73523809D01*
X135109523Y-73561904D01*
X134804761Y-73561904D01*
X134804761Y-72761904D01*
X135071428Y-72761904D01*
X135147619Y-72800000D01*
X135185714Y-72838095D01*
X135223809Y-72914285D01*
X135223809Y-72990476D01*
X135185714Y-73066666D01*
X135147619Y-73104761D01*
X135071428Y-73142857D01*
X134804761Y-73142857D01*
X135490476Y-72761904D02*
X135947619Y-72761904D01*
X135719047Y-73561904D02*
X135719047Y-72761904D01*
X136671428Y-73485714D02*
X136633333Y-73523809D01*
X136519047Y-73561904D01*
X136442857Y-73561904D01*
X136328571Y-73523809D01*
X136252380Y-73447619D01*
X136214285Y-73371428D01*
X136176190Y-73219047D01*
X136176190Y-73104761D01*
X136214285Y-72952380D01*
X136252380Y-72876190D01*
X136328571Y-72800000D01*
X136442857Y-72761904D01*
X136519047Y-72761904D01*
X136633333Y-72800000D01*
X136671428Y-72838095D01*
X137433333Y-73561904D02*
X136976190Y-73561904D01*
X137204761Y-73561904D02*
X137204761Y-72761904D01*
X137128571Y-72876190D01*
X137052380Y-72952380D01*
X136976190Y-72990476D01*
X138119047Y-72761904D02*
X137966666Y-72761904D01*
X137890476Y-72800000D01*
X137852380Y-72838095D01*
X137776190Y-72952380D01*
X137738095Y-73104761D01*
X137738095Y-73409523D01*
X137776190Y-73485714D01*
X137814285Y-73523809D01*
X137890476Y-73561904D01*
X138042857Y-73561904D01*
X138119047Y-73523809D01*
X138157142Y-73485714D01*
X138195238Y-73409523D01*
X138195238Y-73219047D01*
X138157142Y-73142857D01*
X138119047Y-73104761D01*
X138042857Y-73066666D01*
X137890476Y-73066666D01*
X137814285Y-73104761D01*
X137776190Y-73142857D01*
X137738095Y-73219047D01*
X138538095Y-73257142D02*
X139147619Y-73257142D01*
X139490476Y-72838095D02*
X139528571Y-72800000D01*
X139604761Y-72761904D01*
X139795238Y-72761904D01*
X139871428Y-72800000D01*
X139909523Y-72838095D01*
X139947619Y-72914285D01*
X139947619Y-72990476D01*
X139909523Y-73104761D01*
X139452380Y-73561904D01*
X139947619Y-73561904D01*
X140404761Y-73104761D02*
X140328571Y-73066666D01*
X140290476Y-73028571D01*
X140252380Y-72952380D01*
X140252380Y-72914285D01*
X140290476Y-72838095D01*
X140328571Y-72800000D01*
X140404761Y-72761904D01*
X140557142Y-72761904D01*
X140633333Y-72800000D01*
X140671428Y-72838095D01*
X140709523Y-72914285D01*
X140709523Y-72952380D01*
X140671428Y-73028571D01*
X140633333Y-73066666D01*
X140557142Y-73104761D01*
X140404761Y-73104761D01*
X140328571Y-73142857D01*
X140290476Y-73180952D01*
X140252380Y-73257142D01*
X140252380Y-73409523D01*
X140290476Y-73485714D01*
X140328571Y-73523809D01*
X140404761Y-73561904D01*
X140557142Y-73561904D01*
X140633333Y-73523809D01*
X140671428Y-73485714D01*
X140709523Y-73409523D01*
X140709523Y-73257142D01*
X140671428Y-73180952D01*
X140633333Y-73142857D01*
X140557142Y-73104761D01*
X141014285Y-72838095D02*
X141052380Y-72800000D01*
X141128571Y-72761904D01*
X141319047Y-72761904D01*
X141395238Y-72800000D01*
X141433333Y-72838095D01*
X141471428Y-72914285D01*
X141471428Y-72990476D01*
X141433333Y-73104761D01*
X140976190Y-73561904D01*
X141471428Y-73561904D01*
X142195238Y-73561904D02*
X141814285Y-73561904D01*
X141814285Y-72761904D01*
X142385714Y-72761904D02*
X142919047Y-73561904D01*
X142919047Y-72761904D02*
X142385714Y-73561904D01*
X143223809Y-73257142D02*
X143833333Y-73257142D01*
X143528571Y-73561904D02*
X143528571Y-72952380D01*
X145090476Y-73142857D02*
X145204761Y-73180952D01*
X145242857Y-73219047D01*
X145280952Y-73295238D01*
X145280952Y-73409523D01*
X145242857Y-73485714D01*
X145204761Y-73523809D01*
X145128571Y-73561904D01*
X144823809Y-73561904D01*
X144823809Y-72761904D01*
X145090476Y-72761904D01*
X145166666Y-72800000D01*
X145204761Y-72838095D01*
X145242857Y-72914285D01*
X145242857Y-72990476D01*
X145204761Y-73066666D01*
X145166666Y-73104761D01*
X145090476Y-73142857D01*
X144823809Y-73142857D01*
X146080952Y-73561904D02*
X145814285Y-73180952D01*
X145623809Y-73561904D02*
X145623809Y-72761904D01*
X145928571Y-72761904D01*
X146004761Y-72800000D01*
X146042857Y-72838095D01*
X146080952Y-72914285D01*
X146080952Y-73028571D01*
X146042857Y-73104761D01*
X146004761Y-73142857D01*
X145928571Y-73180952D01*
X145623809Y-73180952D01*
X146423809Y-73142857D02*
X146690476Y-73142857D01*
X146804761Y-73561904D02*
X146423809Y-73561904D01*
X146423809Y-72761904D01*
X146804761Y-72761904D01*
X147109523Y-73333333D02*
X147490476Y-73333333D01*
X147033333Y-73561904D02*
X147300000Y-72761904D01*
X147566666Y-73561904D01*
X147833333Y-73561904D02*
X147833333Y-72761904D01*
X148290476Y-73561904D02*
X147947619Y-73104761D01*
X148290476Y-72761904D02*
X147833333Y-73219047D01*
X148785714Y-72761904D02*
X148938095Y-72761904D01*
X149014285Y-72800000D01*
X149090476Y-72876190D01*
X149128571Y-73028571D01*
X149128571Y-73295238D01*
X149090476Y-73447619D01*
X149014285Y-73523809D01*
X148938095Y-73561904D01*
X148785714Y-73561904D01*
X148709523Y-73523809D01*
X148633333Y-73447619D01*
X148595238Y-73295238D01*
X148595238Y-73028571D01*
X148633333Y-72876190D01*
X148709523Y-72800000D01*
X148785714Y-72761904D01*
X149471428Y-72761904D02*
X149471428Y-73409523D01*
X149509523Y-73485714D01*
X149547619Y-73523809D01*
X149623809Y-73561904D01*
X149776190Y-73561904D01*
X149852380Y-73523809D01*
X149890476Y-73485714D01*
X149928571Y-73409523D01*
X149928571Y-72761904D01*
X150195238Y-72761904D02*
X150652380Y-72761904D01*
X150423809Y-73561904D02*
X150423809Y-72761904D01*
X151985714Y-73561904D02*
X151719047Y-73180952D01*
X151528571Y-73561904D02*
X151528571Y-72761904D01*
X151833333Y-72761904D01*
X151909523Y-72800000D01*
X151947619Y-72838095D01*
X151985714Y-72914285D01*
X151985714Y-73028571D01*
X151947619Y-73104761D01*
X151909523Y-73142857D01*
X151833333Y-73180952D01*
X151528571Y-73180952D01*
X152328571Y-73142857D02*
X152595238Y-73142857D01*
X152709523Y-73561904D02*
X152328571Y-73561904D01*
X152328571Y-72761904D01*
X152709523Y-72761904D01*
X152938095Y-72761904D02*
X153204761Y-73561904D01*
X153471428Y-72761904D01*
X153738095Y-73485714D02*
X153776190Y-73523809D01*
X153738095Y-73561904D01*
X153700000Y-73523809D01*
X153738095Y-73485714D01*
X153738095Y-73561904D01*
X155147619Y-73561904D02*
X154690476Y-73561904D01*
X154919047Y-73561904D02*
X154919047Y-72761904D01*
X154842857Y-72876190D01*
X154766666Y-72952380D01*
X154690476Y-72990476D01*
X155452380Y-73333333D02*
X155833333Y-73333333D01*
X155376190Y-73561904D02*
X155642857Y-72761904D01*
X155909523Y-73561904D01*
X156100000Y-73828571D02*
X156290476Y-73828571D01*
X156290476Y-72685714D01*
X156100000Y-72685714D01*
D11*
G36*
X128500000Y-74500000D02*
X138250000Y-74500000D01*
X141000000Y-77000000D01*
X149000000Y-77000000D01*
X151750000Y-74500000D01*
X164000000Y-74500000D01*
X164750000Y-85250000D01*
X151750000Y-85500000D01*
X150500000Y-86750000D01*
X150000000Y-99750000D01*
X139750000Y-98750000D01*
X139500000Y-86750000D01*
X138250000Y-85500000D01*
X127500000Y-85500000D01*
X128500000Y-74500000D01*
G37*
X128500000Y-74500000D02*
X138250000Y-74500000D01*
X141000000Y-77000000D01*
X149000000Y-77000000D01*
X151750000Y-74500000D01*
X164000000Y-74500000D01*
X164750000Y-85250000D01*
X151750000Y-85500000D01*
X150500000Y-86750000D01*
X150000000Y-99750000D01*
X139750000Y-98750000D01*
X139500000Y-86750000D01*
X138250000Y-85500000D01*
X127500000Y-85500000D01*
X128500000Y-74500000D01*
D12*
G36*
X146196000Y-94749800D02*
X143804000Y-94749800D01*
X143804000Y-86647800D01*
X146196000Y-86647800D01*
X146196000Y-94749800D01*
X146196000Y-94749800D01*
G37*
G36*
X141881000Y-94749800D02*
X139359000Y-94749800D01*
X139359000Y-86647800D01*
X141881000Y-86647800D01*
X141881000Y-94749800D01*
X141881000Y-94749800D01*
G37*
G36*
X150641000Y-94749800D02*
X148119000Y-94749800D01*
X148119000Y-86647800D01*
X150641000Y-86647800D01*
X150641000Y-94749800D01*
X150641000Y-94749800D01*
G37*
G36*
X135634239Y-86811467D02*
X135948282Y-86873934D01*
X136539926Y-87119001D01*
X136829523Y-87312504D01*
X137072395Y-87474786D01*
X137525214Y-87927605D01*
X137525216Y-87927608D01*
X137880999Y-88460074D01*
X138002724Y-88753944D01*
X138126066Y-89051719D01*
X138251000Y-89679803D01*
X138251000Y-90320197D01*
X138188533Y-90634239D01*
X138126066Y-90948282D01*
X137880999Y-91539926D01*
X137633265Y-91910685D01*
X137525214Y-92072395D01*
X137072395Y-92525214D01*
X137072392Y-92525216D01*
X136539926Y-92880999D01*
X135948282Y-93126066D01*
X135634239Y-93188533D01*
X135320197Y-93251000D01*
X134679803Y-93251000D01*
X134365761Y-93188533D01*
X134051718Y-93126066D01*
X133460074Y-92880999D01*
X132927608Y-92525216D01*
X132927605Y-92525214D01*
X132474786Y-92072395D01*
X132366735Y-91910685D01*
X132119001Y-91539926D01*
X131873934Y-90948282D01*
X131811467Y-90634239D01*
X131749000Y-90320197D01*
X131749000Y-89679803D01*
X131873934Y-89051719D01*
X131997276Y-88753944D01*
X132119001Y-88460074D01*
X132474784Y-87927608D01*
X132474786Y-87927605D01*
X132927605Y-87474786D01*
X133170477Y-87312504D01*
X133460074Y-87119001D01*
X134051718Y-86873934D01*
X134365761Y-86811467D01*
X134679803Y-86749000D01*
X135320197Y-86749000D01*
X135634239Y-86811467D01*
X135634239Y-86811467D01*
G37*
G36*
X155634239Y-86811467D02*
X155948282Y-86873934D01*
X156539926Y-87119001D01*
X156829523Y-87312504D01*
X157072395Y-87474786D01*
X157525214Y-87927605D01*
X157525216Y-87927608D01*
X157880999Y-88460074D01*
X158002724Y-88753944D01*
X158126066Y-89051719D01*
X158251000Y-89679803D01*
X158251000Y-90320197D01*
X158188533Y-90634239D01*
X158126066Y-90948282D01*
X157880999Y-91539926D01*
X157633265Y-91910685D01*
X157525214Y-92072395D01*
X157072395Y-92525214D01*
X157072392Y-92525216D01*
X156539926Y-92880999D01*
X155948282Y-93126066D01*
X155634239Y-93188533D01*
X155320197Y-93251000D01*
X154679803Y-93251000D01*
X154365761Y-93188533D01*
X154051718Y-93126066D01*
X153460074Y-92880999D01*
X152927608Y-92525216D01*
X152927605Y-92525214D01*
X152474786Y-92072395D01*
X152366735Y-91910685D01*
X152119001Y-91539926D01*
X151873934Y-90948282D01*
X151811467Y-90634239D01*
X151749000Y-90320197D01*
X151749000Y-89679803D01*
X151873934Y-89051719D01*
X151997276Y-88753944D01*
X152119001Y-88460074D01*
X152474784Y-87927608D01*
X152474786Y-87927605D01*
X152927605Y-87474786D01*
X153170477Y-87312504D01*
X153460074Y-87119001D01*
X154051718Y-86873934D01*
X154365761Y-86811467D01*
X154679803Y-86749000D01*
X155320197Y-86749000D01*
X155634239Y-86811467D01*
X155634239Y-86811467D01*
G37*
G36*
X159749800Y-85641000D02*
X151647800Y-85641000D01*
X151647800Y-83119000D01*
X159749800Y-83119000D01*
X159749800Y-85641000D01*
X159749800Y-85641000D01*
G37*
G36*
X138352200Y-85641000D02*
X130250200Y-85641000D01*
X130250200Y-83119000D01*
X138352200Y-83119000D01*
X138352200Y-85641000D01*
X138352200Y-85641000D01*
G37*
G36*
X146741000Y-83961000D02*
X145879000Y-83961000D01*
X145879000Y-82339000D01*
X146741000Y-82339000D01*
X146741000Y-83961000D01*
X146741000Y-83961000D01*
G37*
G36*
X144201000Y-83961000D02*
X143339000Y-83961000D01*
X143339000Y-82339000D01*
X144201000Y-82339000D01*
X144201000Y-83961000D01*
X144201000Y-83961000D01*
G37*
G36*
X138352200Y-81196000D02*
X130250200Y-81196000D01*
X130250200Y-78804000D01*
X138352200Y-78804000D01*
X138352200Y-81196000D01*
X138352200Y-81196000D01*
G37*
G36*
X159749800Y-81196000D02*
X151647800Y-81196000D01*
X151647800Y-78804000D01*
X159749800Y-78804000D01*
X159749800Y-81196000D01*
X159749800Y-81196000D01*
G37*
G36*
X144201000Y-80811000D02*
X143339000Y-80811000D01*
X143339000Y-79189000D01*
X144201000Y-79189000D01*
X144201000Y-80811000D01*
X144201000Y-80811000D01*
G37*
G36*
X145471000Y-80811000D02*
X144609000Y-80811000D01*
X144609000Y-79189000D01*
X145471000Y-79189000D01*
X145471000Y-80811000D01*
X145471000Y-80811000D01*
G37*
G36*
X146741000Y-80801000D02*
X145879000Y-80801000D01*
X145879000Y-79179000D01*
X146741000Y-79179000D01*
X146741000Y-80801000D01*
X146741000Y-80801000D01*
G37*
G36*
X138352200Y-76881000D02*
X130250200Y-76881000D01*
X130250200Y-74359000D01*
X138352200Y-74359000D01*
X138352200Y-76881000D01*
X138352200Y-76881000D01*
G37*
G36*
X159749800Y-76881000D02*
X151647800Y-76881000D01*
X151647800Y-74359000D01*
X159749800Y-74359000D01*
X159749800Y-76881000D01*
X159749800Y-76881000D01*
G37*
M02*
