M48
;DRILL file {KiCad 5.0.1} date Sat 23 Mar 2019 17:43:09 PDT
;FORMAT={-:-/ absolute / inch / decimal}
FMAT,2
INCH,TZ
T1C0.0157
T2C0.0197
T3C0.1260
%
G90
G05
M72
T1
X5.1575Y-3.061
X5.1575Y-3.2382
X5.2067Y-3.061
X5.2067Y-3.2382
X5.2559Y-3.061
X5.2559Y-3.2382
X5.3051Y-3.061
X5.3051Y-3.2382
X5.3543Y-3.061
X5.3543Y-3.2382
X5.4035Y-3.061
X5.4035Y-3.2382
X5.4823Y-3.0807
X5.4823Y-3.2185
X5.5315Y-3.0807
X5.5315Y-3.2185
X5.5807Y-3.0807
X5.5807Y-3.2185
X5.6201Y-3.435
X5.6201Y-3.4843
X5.6201Y-3.5335
X5.6201Y-3.5827
X5.6201Y-3.6319
X5.6201Y-3.6811
X5.6299Y-3.0807
X5.6339Y-3.3819
X5.6535Y-3.3406
X5.6614Y-3.2106
X5.7106Y-3.2106
X5.7126Y-3.0846
X5.7638Y-3.2106
X5.7874Y-3.0807
X5.7972Y-3.4252
X5.7972Y-3.4744
X5.7972Y-3.5236
X5.7972Y-3.5728
X5.7972Y-3.622
X5.7972Y-3.6713
X5.8051Y-3.378
X5.8169Y-3.2854
X5.8287Y-3.3327
X5.8366Y-3.0807
X5.8366Y-3.2185
X5.8858Y-3.0807
X5.8858Y-3.2185
X5.935Y-3.0807
X5.935Y-3.2185
X6.0138Y-3.061
X6.0138Y-3.2382
X6.063Y-3.061
X6.063Y-3.2382
X6.1122Y-3.061
X6.1122Y-3.2382
X6.1614Y-3.061
X6.1614Y-3.2382
X6.2106Y-3.061
X6.2106Y-3.2382
X6.2598Y-3.061
X6.2598Y-3.2382
T2
X6.0079Y-3.5433
X6.0355Y-3.4765
X6.0355Y-3.6101
X6.1024Y-3.4488
X6.1024Y-3.6378
X6.1692Y-3.4765
X6.1692Y-3.6101
X6.1969Y-3.5433
X5.2205Y-3.5433
X5.2481Y-3.4765
X5.2481Y-3.6101
X5.315Y-3.4488
X5.315Y-3.6378
X5.3818Y-3.4765
X5.3818Y-3.6101
X5.4094Y-3.5433
T3
X6.1024Y-3.5433
X5.315Y-3.5433
T0
M30
