(kicad_pcb (version 20171130) (host pcbnew "(5.1.0-69-gb00413b7d)")

  (general
    (thickness 1.6)
    (drawings 28)
    (tracks 88)
    (zones 0)
    (modules 6)
    (nets 5)
  )

  (page A4)
  (layers
    (0 F.Cu signal)
    (31 B.Cu signal hide)
    (32 B.Adhes user)
    (33 F.Adhes user)
    (34 B.Paste user)
    (35 F.Paste user)
    (36 B.SilkS user)
    (37 F.SilkS user)
    (38 B.Mask user)
    (39 F.Mask user)
    (40 Dwgs.User user)
    (41 Cmts.User user)
    (42 Eco1.User user)
    (43 Eco2.User user)
    (44 Edge.Cuts user)
    (45 Margin user)
    (46 B.CrtYd user)
    (47 F.CrtYd user)
    (48 B.Fab user hide)
    (49 F.Fab user hide)
  )

  (setup
    (last_trace_width 0.25)
    (trace_clearance 0.2)
    (zone_clearance 0.3302)
    (zone_45_only no)
    (trace_min 0.2)
    (via_size 0.8)
    (via_drill 0.4)
    (via_min_size 0.4)
    (via_min_drill 0.3)
    (uvia_size 0.3)
    (uvia_drill 0.1)
    (uvias_allowed no)
    (uvia_min_size 0.2)
    (uvia_min_drill 0.1)
    (edge_width 0.15)
    (segment_width 0.2)
    (pcb_text_width 0.3)
    (pcb_text_size 1.5 1.5)
    (mod_edge_width 0.15)
    (mod_text_size 1 1)
    (mod_text_width 0.15)
    (pad_size 0.35 1)
    (pad_drill 0)
    (pad_to_mask_clearance 0.051)
    (solder_mask_min_width 0.25)
    (aux_axis_origin 0 0)
    (visible_elements FFFFFF7F)
    (pcbplotparams
      (layerselection 0x010f0_ffffffff)
      (usegerberextensions false)
      (usegerberattributes false)
      (usegerberadvancedattributes false)
      (creategerberjobfile false)
      (excludeedgelayer true)
      (linewidth 0.100000)
      (plotframeref false)
      (viasonmask false)
      (mode 1)
      (useauxorigin false)
      (hpglpennumber 1)
      (hpglpenspeed 20)
      (hpglpendiameter 15.000000)
      (psnegative false)
      (psa4output false)
      (plotreference true)
      (plotvalue true)
      (plotinvisibletext false)
      (padsonsilk false)
      (subtractmaskfromsilk false)
      (outputformat 1)
      (mirror false)
      (drillshape 0)
      (scaleselection 1)
      (outputdirectory "../fab/fab1/"))
  )

  (net 0 "")
  (net 1 GND)
  (net 2 "Net-(J1-Pad1)")
  (net 3 "Net-(J2-Pad1)")
  (net 4 "Net-(J3-Pad1)")

  (net_class Default "This is the default net class."
    (clearance 0.2)
    (trace_width 0.25)
    (via_dia 0.8)
    (via_drill 0.4)
    (uvia_dia 0.3)
    (uvia_drill 0.1)
    (add_net GND)
    (add_net "Net-(J1-Pad1)")
    (add_net "Net-(J2-Pad1)")
    (add_net "Net-(J3-Pad1)")
  )

  (module Mounting_Holes:MountingHole_3.2mm_M3_Pad_Via (layer F.Cu) (tedit 56DDBCCA) (tstamp 5CA9953F)
    (at 135 90)
    (descr "Mounting Hole 3.2mm, M3")
    (tags "mounting hole 3.2mm m3")
    (attr virtual)
    (fp_text reference REF** (at 0 -4.2) (layer F.Fab)
      (effects (font (size 1 1) (thickness 0.15)))
    )
    (fp_text value MountingHole_3.2mm_M3_Pad_Via (at 0 4.2) (layer F.Fab)
      (effects (font (size 1 1) (thickness 0.15)))
    )
    (fp_text user %R (at 0.3 0) (layer F.Fab)
      (effects (font (size 1 1) (thickness 0.15)))
    )
    (fp_circle (center 0 0) (end 3.2 0) (layer Cmts.User) (width 0.15))
    (fp_circle (center 0 0) (end 3.45 0) (layer F.CrtYd) (width 0.05))
    (pad 1 thru_hole circle (at 0 0) (size 6.4 6.4) (drill 3.2) (layers *.Cu *.Mask))
    (pad 1 thru_hole circle (at 2.4 0) (size 0.8 0.8) (drill 0.5) (layers *.Cu *.Mask))
    (pad 1 thru_hole circle (at 1.697056 1.697056) (size 0.8 0.8) (drill 0.5) (layers *.Cu *.Mask))
    (pad 1 thru_hole circle (at 0 2.4) (size 0.8 0.8) (drill 0.5) (layers *.Cu *.Mask))
    (pad 1 thru_hole circle (at -1.697056 1.697056) (size 0.8 0.8) (drill 0.5) (layers *.Cu *.Mask))
    (pad 1 thru_hole circle (at -2.4 0) (size 0.8 0.8) (drill 0.5) (layers *.Cu *.Mask))
    (pad 1 thru_hole circle (at -1.697056 -1.697056) (size 0.8 0.8) (drill 0.5) (layers *.Cu *.Mask))
    (pad 1 thru_hole circle (at 0 -2.4) (size 0.8 0.8) (drill 0.5) (layers *.Cu *.Mask))
    (pad 1 thru_hole circle (at 1.697056 -1.697056) (size 0.8 0.8) (drill 0.5) (layers *.Cu *.Mask))
  )

  (module Mounting_Holes:MountingHole_3.2mm_M3_Pad_Via (layer F.Cu) (tedit 56DDBCCA) (tstamp 5CA9952E)
    (at 155 90)
    (descr "Mounting Hole 3.2mm, M3")
    (tags "mounting hole 3.2mm m3")
    (attr virtual)
    (fp_text reference REF** (at 0 -4.2) (layer F.Fab)
      (effects (font (size 1 1) (thickness 0.15)))
    )
    (fp_text value MountingHole_3.2mm_M3_Pad_Via (at 0 4.2) (layer F.Fab)
      (effects (font (size 1 1) (thickness 0.15)))
    )
    (fp_text user %R (at 0.3 0) (layer F.Fab)
      (effects (font (size 1 1) (thickness 0.15)))
    )
    (fp_circle (center 0 0) (end 3.2 0) (layer Cmts.User) (width 0.15))
    (fp_circle (center 0 0) (end 3.45 0) (layer F.CrtYd) (width 0.05))
    (pad 1 thru_hole circle (at 0 0) (size 6.4 6.4) (drill 3.2) (layers *.Cu *.Mask))
    (pad 1 thru_hole circle (at 2.4 0) (size 0.8 0.8) (drill 0.5) (layers *.Cu *.Mask))
    (pad 1 thru_hole circle (at 1.697056 1.697056) (size 0.8 0.8) (drill 0.5) (layers *.Cu *.Mask))
    (pad 1 thru_hole circle (at 0 2.4) (size 0.8 0.8) (drill 0.5) (layers *.Cu *.Mask))
    (pad 1 thru_hole circle (at -1.697056 1.697056) (size 0.8 0.8) (drill 0.5) (layers *.Cu *.Mask))
    (pad 1 thru_hole circle (at -2.4 0) (size 0.8 0.8) (drill 0.5) (layers *.Cu *.Mask))
    (pad 1 thru_hole circle (at -1.697056 -1.697056) (size 0.8 0.8) (drill 0.5) (layers *.Cu *.Mask))
    (pad 1 thru_hole circle (at 0 -2.4) (size 0.8 0.8) (drill 0.5) (layers *.Cu *.Mask))
    (pad 1 thru_hole circle (at 1.697056 -1.697056) (size 0.8 0.8) (drill 0.5) (layers *.Cu *.Mask))
  )

  (module custom_footprints:CON_SMA_EDGE_S (layer F.Cu) (tedit 5C9F03FA) (tstamp 5C9F0BD8)
    (at 159.8 80 180)
    (tags "sma edge")
    (path /5C8CCBAB)
    (attr smd)
    (fp_text reference J3 (at 2.4 5 180) (layer F.Fab)
      (effects (font (size 0.4 0.4) (thickness 0.125)))
    )
    (fp_text value SMA (at -0.2 -5.4 180) (layer F.Fab)
      (effects (font (size 1 1) (thickness 0.15)))
    )
    (fp_line (start -9.6 3) (end -9.6 -3) (layer F.CrtYd) (width 0.12))
    (fp_line (start 3.8 3) (end -9.6 3) (layer F.CrtYd) (width 0.12))
    (fp_line (start 3.8 -3) (end 3.8 3) (layer F.CrtYd) (width 0.12))
    (fp_line (start -9.6 -3) (end 3.8 -3) (layer F.CrtYd) (width 0.12))
    (pad 2 smd rect (at 0.8012 2.78 180) (size 4.5 2) (drill (offset 1.5 0)) (layers B.Cu B.Paste B.Mask)
      (net 1 GND))
    (pad 2 smd rect (at 0.8012 -2.78 180) (size 4.5 2) (drill (offset 1.5 0)) (layers B.Cu B.Paste B.Mask)
      (net 1 GND))
    (pad 2 smd rect (at 0.8012 2.78 180) (size 4.5 2) (drill (offset 1.5 0)) (layers F.Cu F.Paste F.Mask)
      (net 1 GND))
    (pad 2 smd rect (at 0.8012 -2.78 180) (size 4.5 2) (drill (offset 1.5 0)) (layers F.Cu F.Paste F.Mask)
      (net 1 GND))
    (pad 1 smd rect (at 0.8 0 180) (size 4.5 1.56) (drill (offset 1.5 0)) (layers F.Cu F.Paste F.Mask)
      (net 4 "Net-(J3-Pad1)"))
    (model ../models/con-sma-edge-s.wrl
      (offset (xyz -0.2 0 0))
      (scale (xyz 0.393 0.393 0.393))
      (rotate (xyz 0 0 0))
    )
  )

  (module custom_footprints:CON_SMA_EDGE_S (layer F.Cu) (tedit 5C9F03FA) (tstamp 5C9F0B69)
    (at 144.9578 94.6 90)
    (tags "sma edge")
    (path /5C8CCC86)
    (attr smd)
    (fp_text reference J2 (at 2.4 5 90) (layer F.Fab)
      (effects (font (size 0.4 0.4) (thickness 0.125)))
    )
    (fp_text value SMA (at -0.2 -5.4 90) (layer F.Fab)
      (effects (font (size 1 1) (thickness 0.15)))
    )
    (fp_line (start -9.6 3) (end -9.6 -3) (layer F.CrtYd) (width 0.12))
    (fp_line (start 3.8 3) (end -9.6 3) (layer F.CrtYd) (width 0.12))
    (fp_line (start 3.8 -3) (end 3.8 3) (layer F.CrtYd) (width 0.12))
    (fp_line (start -9.6 -3) (end 3.8 -3) (layer F.CrtYd) (width 0.12))
    (pad 2 smd rect (at 0.8012 2.78 90) (size 4.5 2) (drill (offset 1.5 0)) (layers B.Cu B.Paste B.Mask)
      (net 1 GND))
    (pad 2 smd rect (at 0.8012 -2.78 90) (size 4.5 2) (drill (offset 1.5 0)) (layers B.Cu B.Paste B.Mask)
      (net 1 GND))
    (pad 2 smd rect (at 0.8012 2.78 90) (size 4.5 2) (drill (offset 1.5 0)) (layers F.Cu F.Paste F.Mask)
      (net 1 GND))
    (pad 2 smd rect (at 0.8012 -2.78 90) (size 4.5 2) (drill (offset 1.5 0)) (layers F.Cu F.Paste F.Mask)
      (net 1 GND))
    (pad 1 smd rect (at 0.8 0 90) (size 4.5 1.56) (drill (offset 1.5 0)) (layers F.Cu F.Paste F.Mask)
      (net 3 "Net-(J2-Pad1)"))
    (model ../models/con-sma-edge-s.wrl
      (offset (xyz -0.2 0 0))
      (scale (xyz 0.393 0.393 0.393))
      (rotate (xyz 0 0 0))
    )
  )

  (module custom_footprints:CON_SMA_EDGE_S (layer F.Cu) (tedit 5C9F03FA) (tstamp 5CA1A1DC)
    (at 130.4 80)
    (tags "sma edge")
    (path /5C8CCA58)
    (attr smd)
    (fp_text reference J1 (at 2.4 5) (layer F.Fab)
      (effects (font (size 0.4 0.4) (thickness 0.125)))
    )
    (fp_text value SMA (at -0.2 -5.4) (layer F.Fab)
      (effects (font (size 1 1) (thickness 0.15)))
    )
    (fp_line (start -9.6 3) (end -9.6 -3) (layer F.CrtYd) (width 0.12))
    (fp_line (start 3.8 3) (end -9.6 3) (layer F.CrtYd) (width 0.12))
    (fp_line (start 3.8 -3) (end 3.8 3) (layer F.CrtYd) (width 0.12))
    (fp_line (start -9.6 -3) (end 3.8 -3) (layer F.CrtYd) (width 0.12))
    (pad 2 smd rect (at 0.8012 2.78) (size 4.5 2) (drill (offset 1.5 0)) (layers B.Cu B.Paste B.Mask)
      (net 1 GND))
    (pad 2 smd rect (at 0.8012 -2.78) (size 4.5 2) (drill (offset 1.5 0)) (layers B.Cu B.Paste B.Mask)
      (net 1 GND))
    (pad 2 smd rect (at 0.8012 2.78) (size 4.5 2) (drill (offset 1.5 0)) (layers F.Cu F.Paste F.Mask)
      (net 1 GND))
    (pad 2 smd rect (at 0.8012 -2.78) (size 4.5 2) (drill (offset 1.5 0)) (layers F.Cu F.Paste F.Mask)
      (net 1 GND))
    (pad 1 smd rect (at 0.8 0) (size 4.5 1.56) (drill (offset 1.5 0)) (layers F.Cu F.Paste F.Mask)
      (net 2 "Net-(J1-Pad1)"))
    (model ../models/con-sma-edge-s.wrl
      (offset (xyz -0.2 0 0))
      (scale (xyz 0.393 0.393 0.393))
      (rotate (xyz 0 0 0))
    )
  )

  (module custom_footprints:SIM-153+ (layer F.Cu) (tedit 5CA2E4D6) (tstamp 5CA99121)
    (at 144.805923 83.194077 45)
    (path /5CA9D210)
    (fp_text reference U1 (at 2.000001 2.5 45) (layer F.Fab)
      (effects (font (size 1 1) (thickness 0.15)))
    )
    (fp_text value SIM-153+ (at 2 -6.75 45) (layer F.Fab)
      (effects (font (size 1 1) (thickness 0.15)))
    )
    (fp_poly (pts (xy -0.762 -5.588) (xy -0.762 1.016) (xy 4.572 1.016) (xy 4.572 -5.588)) (layer F.Mask) (width 0.1))
    (pad 1 thru_hole circle (at 2.54 -1.27 45) (size 0.6 0.6) (drill 0.33) (layers *.Cu *.Mask)
      (net 1 GND))
    (pad 1 thru_hole circle (at 3.81 -3.302 45) (size 0.6 0.6) (drill 0.33) (layers *.Cu *.Mask)
      (net 1 GND))
    (pad 1 thru_hole circle (at 3.81 -2.286 45) (size 0.6 0.6) (drill 0.33) (layers *.Cu *.Mask)
      (net 1 GND))
    (pad 1 thru_hole circle (at 2.54 -2.286 45) (size 0.6 0.6) (drill 0.33) (layers *.Cu *.Mask)
      (net 1 GND))
    (pad 1 thru_hole circle (at 2.54 -3.302 45) (size 0.6 0.6) (drill 0.33) (layers *.Cu *.Mask)
      (net 1 GND))
    (pad 1 thru_hole circle (at 1.27 -2.286 45) (size 0.6 0.6) (drill 0.33) (layers *.Cu *.Mask)
      (net 1 GND))
    (pad 1 thru_hole circle (at 1.27 -3.302 45) (size 0.6 0.6) (drill 0.33) (layers *.Cu *.Mask)
      (net 1 GND))
    (pad 1 thru_hole circle (at 0.254 -2.286 45) (size 0.6 0.6) (drill 0.33) (layers *.Cu *.Mask)
      (net 1 GND))
    (pad 1 smd rect (at 0.69596 -2.26568 45) (size 0.76 1.27) (layers F.Cu F.Paste F.Mask)
      (net 1 GND))
    (pad 1 smd rect (at 2.61 -2.7 45) (size 3 2.14) (layers F.Cu F.Paste F.Mask)
      (net 1 GND))
    (pad 1 smd rect (at 2.54 -1.83134 45) (size 0.76 2.14) (layers F.Cu F.Paste F.Mask)
      (net 1 GND))
    (pad 1 smd rect (at 1.27 -2.7 45) (size 0.76 2.14) (layers F.Cu F.Paste F.Mask)
      (net 1 GND))
    (pad 1 smd rect (at 3.81 -2.7 45) (size 0.76 2.14) (layers F.Cu F.Paste F.Mask)
      (net 1 GND))
    (pad 1 smd rect (at 0 -1.83 45) (size 0.76 2.14) (layers F.Cu F.Paste F.Mask)
      (net 1 GND))
    (pad 7 smd rect (at 1.27 -4.53 45) (size 0.76 1.52) (layers F.Cu F.Paste F.Mask)
      (net 1 GND))
    (pad 8 smd rect (at 0 -4.53 45) (size 0.76 1.52) (layers F.Cu F.Paste F.Mask)
      (net 2 "Net-(J1-Pad1)"))
    (pad 5 smd rect (at 3.81 -4.53 45) (size 0.76 1.52) (layers F.Cu F.Paste F.Mask)
      (net 1 GND))
    (pad 6 smd rect (at 2.54 -4.53 45) (size 0.76 1.52) (layers F.Cu F.Paste F.Mask)
      (net 1 GND))
    (pad 4 smd rect (at 3.81 0 45) (size 0.76 1.52) (layers F.Cu F.Paste F.Mask)
      (net 4 "Net-(J3-Pad1)"))
    (pad 3 smd rect (at 2.54 0 45) (size 0.76 1.52) (layers F.Cu F.Paste F.Mask)
      (net 1 GND))
    (pad 2 smd rect (at 1.27 0 45) (size 0.76 1.52) (layers F.Cu F.Paste F.Mask)
      (net 3 "Net-(J2-Pad1)"))
    (pad 1 smd rect (at 0 0 45) (size 0.76 1.52) (layers F.Cu F.Paste F.Mask)
      (net 1 GND))
    (model ../models/SIM-153.wrl
      (offset (xyz 0 0.75 0))
      (scale (xyz 0.393 0.393 0.393))
      (rotate (xyz 0 0 0))
    )
  )

  (gr_text "DC-4GHz IF" (at 152.5 75.2) (layer F.SilkS) (tstamp 5CA9AA8A)
    (effects (font (size 0.8 0.8) (thickness 0.15)))
  )
  (gr_text "+7dBm LO" (at 137.1 75.1) (layer F.SilkS)
    (effects (font (size 0.8 0.8) (thickness 0.15)))
  )
  (gr_text "3.4GHz - 15GHz D.B. MIXER" (at 145.1 71.5) (layer F.SilkS)
    (effects (font (size 1 1) (thickness 0.2) italic))
  )
  (gr_text "[ SIM-153+ BREAKOUT ]" (at 144.9 73.2) (layer F.Mask)
    (effects (font (size 1 1.2) (thickness 0.25)))
  )
  (gr_line (start 138.2 87.2) (end 140.6 84.8) (layer F.SilkS) (width 0.3))
  (gr_line (start 138.2 84.8) (end 140.6 87.2) (layer F.SilkS) (width 0.3))
  (gr_circle (center 139.4 86) (end 141.169181 86) (layer F.SilkS) (width 0.3))
  (gr_line (start 155.199999 85.200001) (end 154.5 85.8) (layer F.SilkS) (width 0.3))
  (gr_line (start 155.2 85.2) (end 154.5 84.5) (layer F.SilkS) (width 0.3))
  (gr_arc (start 155 90) (end 155.199999 85.200001) (angle -95.9) (layer F.SilkS) (width 0.3))
  (gr_poly (pts (xy 129.4 77) (xy 135.5 76.7) (xy 139.1 76.6) (xy 140.5 76.4) (xy 141.9 75.5) (xy 142.8 74.7) (xy 143.5 74.4) (xy 144.9 74.2) (xy 145.8 74.4) (xy 146.7 75) (xy 147.9 76.3) (xy 149 77) (xy 150.8 77.1) (xy 151.9 76.8) (xy 155.6 76.6) (xy 165.7 76.4) (xy 166.5 83.1) (xy 155.6 83.3) (xy 153.1 83.3) (xy 151.4 83.5) (xy 150.4 84.3) (xy 150.1 85.5) (xy 149.6 86.8) (xy 148.6 88.3) (xy 148.1 90.2) (xy 147.9 96.6) (xy 142 96.8) (xy 141.8 88.2) (xy 141.9 86.3) (xy 142 85.2) (xy 141.9 84.3) (xy 141.5 83.6) (xy 139.6 83.5) (xy 128.6 83)) (layer F.Mask) (width 0.1))
  (gr_text IF (at 144.9832 91.7956 90) (layer B.SilkS)
    (effects (font (size 1.5 1.5) (thickness 0.3)) (justify mirror))
  )
  (gr_text "REV. 1" (at 151.7 75.7) (layer B.SilkS) (tstamp 5CA1AC3D)
    (effects (font (size 0.7 0.7) (thickness 0.15)) (justify mirror))
  )
  (gr_text RF (at 157.8102 85.1408) (layer F.SilkS) (tstamp 5C9F109F)
    (effects (font (size 1.2 1.2) (thickness 0.3)))
  )
  (gr_text IF (at 150.3 92.9) (layer F.SilkS) (tstamp 5C9F10FD)
    (effects (font (size 1.2 1.2) (thickness 0.3)))
  )
  (gr_text "2019\n" (at 151.8 74.4) (layer B.Mask) (tstamp 5C93534A)
    (effects (font (size 1 1) (thickness 0.2) italic) (justify mirror))
  )
  (gr_text VK2SEB (at 153.2 72.8) (layer B.Mask) (tstamp 5CA1B564)
    (effects (font (size 1.25 1.25) (thickness 0.2) italic) (justify mirror))
  )
  (gr_text "LO\n" (at 132.334 85.09) (layer F.SilkS) (tstamp 5C934FF3)
    (effects (font (size 1.2 1.2) (thickness 0.3)))
  )
  (gr_text LO (at 132.969 80.137) (layer B.SilkS) (tstamp 5CA192E1)
    (effects (font (size 1.5 1.5) (thickness 0.3)) (justify mirror))
  )
  (gr_text RF (at 157.2514 80.0862) (layer B.SilkS) (tstamp 5CA192C9)
    (effects (font (size 1.5 1.5) (thickness 0.3)) (justify mirror))
  )
  (gr_line (start 135 95) (end 155 95) (layer Edge.Cuts) (width 0.15))
  (gr_line (start 135 70) (end 155 70) (layer Edge.Cuts) (width 0.15))
  (gr_line (start 130 90) (end 130 75) (layer Edge.Cuts) (width 0.15))
  (gr_line (start 160 75) (end 160 90) (layer Edge.Cuts) (width 0.15))
  (gr_arc (start 135 90) (end 130 90) (angle -90) (layer Edge.Cuts) (width 0.15))
  (gr_arc (start 155 90) (end 155 95) (angle -90) (layer Edge.Cuts) (width 0.15))
  (gr_arc (start 155 75) (end 160 75) (angle -90) (layer Edge.Cuts) (width 0.15))
  (gr_arc (start 135 75) (end 135 70) (angle -90) (layer Edge.Cuts) (width 0.15))

  (via (at 152.4 81.788) (size 0.8) (drill 0.4) (layers F.Cu B.Cu) (net 1) (tstamp 5CA19302))
  (via (at 153.67 81.788) (size 0.8) (drill 0.4) (layers F.Cu B.Cu) (net 1) (tstamp 5CA192D8))
  (via (at 154.94 81.788) (size 0.8) (drill 0.4) (layers F.Cu B.Cu) (net 1) (tstamp 5CA19305))
  (via (at 152.4 78.232) (size 0.8) (drill 0.4) (layers F.Cu B.Cu) (net 1) (tstamp 5CA1A8ED))
  (via (at 154.94 78.232) (size 0.8) (drill 0.4) (layers F.Cu B.Cu) (net 1) (tstamp 5CA1A8EF))
  (via (at 153.67 78.232) (size 0.8) (drill 0.4) (layers F.Cu B.Cu) (net 1) (tstamp 5CA1A8F0))
  (via (at 147.2 86.6) (size 0.8) (drill 0.4) (layers F.Cu B.Cu) (net 1))
  (via (at 146.812 87.884) (size 0.8) (drill 0.4) (layers F.Cu B.Cu) (net 1))
  (via (at 146.812 89.154) (size 0.8) (drill 0.4) (layers F.Cu B.Cu) (net 1))
  (via (at 143.256 89.154) (size 0.8) (drill 0.4) (layers F.Cu B.Cu) (net 1))
  (via (at 143.256 87.884) (size 0.8) (drill 0.4) (layers F.Cu B.Cu) (net 1))
  (via (at 143.256 86.614) (size 0.8) (drill 0.4) (layers F.Cu B.Cu) (net 1))
  (via (at 135.128 81.788) (size 0.8) (drill 0.4) (layers F.Cu B.Cu) (net 1) (tstamp 5CA192D5))
  (via (at 136.398 81.788) (size 0.8) (drill 0.4) (layers F.Cu B.Cu) (net 1) (tstamp 5CA192BA))
  (via (at 137.668 81.788) (size 0.8) (drill 0.4) (layers F.Cu B.Cu) (net 1) (tstamp 5CA192C3))
  (via (at 138.938 81.788) (size 0.8) (drill 0.4) (layers F.Cu B.Cu) (net 1) (tstamp 5CA192DE))
  (via (at 138.938 78.232) (size 0.8) (drill 0.4) (layers F.Cu B.Cu) (net 1) (tstamp 5CA192CF))
  (via (at 137.668 78.232) (size 0.8) (drill 0.4) (layers F.Cu B.Cu) (net 1) (tstamp 5CA192C6))
  (via (at 136.398 78.232) (size 0.8) (drill 0.4) (layers F.Cu B.Cu) (net 1) (tstamp 5CA192F9))
  (via (at 135.128 78.232) (size 0.8) (drill 0.4) (layers F.Cu B.Cu) (net 1) (tstamp 5CA192F6))
  (via (at 143.8 85.2) (size 0.8) (drill 0.4) (layers F.Cu B.Cu) (net 1))
  (via (at 144.8 84.3) (size 0.8) (drill 0.4) (layers F.Cu B.Cu) (net 1))
  (via (at 148.3 85.6) (size 0.8) (drill 0.4) (layers F.Cu B.Cu) (net 1))
  (via (at 148.4 84.2) (size 0.8) (drill 0.4) (layers F.Cu B.Cu) (net 1))
  (via (at 147.8 83.1) (size 0.8) (drill 0.4) (layers F.Cu B.Cu) (net 1))
  (via (at 151 78.4) (size 0.8) (drill 0.4) (layers F.Cu B.Cu) (net 1))
  (via (at 151 81.9) (size 0.8) (drill 0.4) (layers F.Cu B.Cu) (net 1))
  (via (at 149.6 82.1) (size 0.8) (drill 0.4) (layers F.Cu B.Cu) (net 1))
  (via (at 149.4 78.5) (size 0.8) (drill 0.4) (layers F.Cu B.Cu) (net 1))
  (via (at 147.8 78.6) (size 0.8) (drill 0.4) (layers F.Cu B.Cu) (net 1))
  (via (at 140.2 78.2) (size 0.8) (drill 0.4) (layers F.Cu B.Cu) (net 1))
  (via (at 141.5 78.2) (size 0.8) (drill 0.4) (layers F.Cu B.Cu) (net 1))
  (via (at 140.2 81.8) (size 0.8) (drill 0.4) (layers F.Cu B.Cu) (net 1))
  (via (at 141.5 81.8) (size 0.8) (drill 0.4) (layers F.Cu B.Cu) (net 1))
  (via (at 148.4 82.2) (size 0.8) (drill 0.4) (layers F.Cu B.Cu) (net 1))
  (via (at 142.5 82.7) (size 0.8) (drill 0.4) (layers F.Cu B.Cu) (net 1))
  (via (at 143.4 83.7) (size 0.8) (drill 0.4) (layers F.Cu B.Cu) (net 1))
  (via (at 142.5 77.3) (size 0.8) (drill 0.4) (layers F.Cu B.Cu) (net 1))
  (via (at 143.4 76.4) (size 0.8) (drill 0.4) (layers F.Cu B.Cu) (net 1))
  (via (at 146.8 77.5) (size 0.8) (drill 0.4) (layers F.Cu B.Cu) (net 1))
  (via (at 145.8 76.7) (size 0.8) (drill 0.4) (layers F.Cu B.Cu) (net 1))
  (via (at 144.7 75.9) (size 0.8) (drill 0.4) (layers F.Cu B.Cu) (net 1))
  (via (at 135.8 77.4) (size 0.8) (drill 0.4) (layers F.Cu B.Cu) (net 1))
  (via (at 137.1 77.4) (size 0.8) (drill 0.4) (layers F.Cu B.Cu) (net 1))
  (via (at 138.3 77.4) (size 0.8) (drill 0.4) (layers F.Cu B.Cu) (net 1))
  (via (at 139.6 77.4) (size 0.8) (drill 0.4) (layers F.Cu B.Cu) (net 1))
  (via (at 140.8 77.4) (size 0.8) (drill 0.4) (layers F.Cu B.Cu) (net 1))
  (via (at 142.3 76.3) (size 0.8) (drill 0.4) (layers F.Cu B.Cu) (net 1))
  (via (at 141.6 76.9) (size 0.8) (drill 0.4) (layers F.Cu B.Cu) (net 1))
  (via (at 143.8 75.4) (size 0.8) (drill 0.4) (layers F.Cu B.Cu) (net 1))
  (via (at 145.7 75.7) (size 0.8) (drill 0.4) (layers F.Cu B.Cu) (net 1))
  (via (at 146.8 76.5) (size 0.8) (drill 0.4) (layers F.Cu B.Cu) (net 1))
  (via (at 147.8 77.6) (size 0.8) (drill 0.4) (layers F.Cu B.Cu) (net 1))
  (via (at 144.8 74.9) (size 0.8) (drill 0.4) (layers F.Cu B.Cu) (net 1))
  (via (at 148.6 78) (size 0.8) (drill 0.4) (layers F.Cu B.Cu) (net 1))
  (via (at 150.2 77.9) (size 0.8) (drill 0.4) (layers F.Cu B.Cu) (net 1))
  (via (at 151.7 77.5) (size 0.8) (drill 0.4) (layers F.Cu B.Cu) (net 1))
  (via (at 153 77.4) (size 0.8) (drill 0.4) (layers F.Cu B.Cu) (net 1))
  (via (at 154.3 77.4) (size 0.8) (drill 0.4) (layers F.Cu B.Cu) (net 1))
  (via (at 154.3 82.6) (size 0.8) (drill 0.4) (layers F.Cu B.Cu) (net 1))
  (via (at 153 82.5) (size 0.8) (drill 0.4) (layers F.Cu B.Cu) (net 1))
  (via (at 151.7 82.6) (size 0.8) (drill 0.4) (layers F.Cu B.Cu) (net 1))
  (via (at 150.4 82.8) (size 0.8) (drill 0.4) (layers F.Cu B.Cu) (net 1))
  (via (at 149 83.1) (size 0.8) (drill 0.4) (layers F.Cu B.Cu) (net 1))
  (via (at 149.3 84.9) (size 0.8) (drill 0.4) (layers F.Cu B.Cu) (net 1))
  (via (at 149.7 83.9) (size 0.8) (drill 0.4) (layers F.Cu B.Cu) (net 1))
  (via (at 148.3 86.7) (size 0.8) (drill 0.4) (layers F.Cu B.Cu) (net 1))
  (via (at 149.2 86) (size 0.8) (drill 0.4) (layers F.Cu B.Cu) (net 1))
  (via (at 142.9 75.6) (size 0.8) (drill 0.4) (layers F.Cu B.Cu) (net 1))
  (via (at 147.8 87.5) (size 0.8) (drill 0.4) (layers F.Cu B.Cu) (net 1))
  (via (at 147.7 88.5) (size 0.8) (drill 0.4) (layers F.Cu B.Cu) (net 1))
  (via (at 142.5 88.5) (size 0.8) (drill 0.4) (layers F.Cu B.Cu) (net 1))
  (via (at 142.5 87.3) (size 0.8) (drill 0.4) (layers F.Cu B.Cu) (net 1))
  (via (at 142.8 85.7) (size 0.8) (drill 0.4) (layers F.Cu B.Cu) (net 1))
  (via (at 142.8 84.6) (size 0.8) (drill 0.4) (layers F.Cu B.Cu) (net 1))
  (via (at 142.4 83.7) (size 0.8) (drill 0.4) (layers F.Cu B.Cu) (net 1))
  (via (at 141.5 82.8) (size 0.8) (drill 0.4) (layers F.Cu B.Cu) (net 1))
  (via (at 139.5 82.6) (size 0.8) (drill 0.4) (layers F.Cu B.Cu) (net 1))
  (via (at 140.5 82.7) (size 0.8) (drill 0.4) (layers F.Cu B.Cu) (net 1))
  (via (at 138.3 82.6) (size 0.8) (drill 0.4) (layers F.Cu B.Cu) (net 1))
  (via (at 137 82.5) (size 0.8) (drill 0.4) (layers F.Cu B.Cu) (net 1))
  (via (at 135.7 82.5) (size 0.8) (drill 0.4) (layers F.Cu B.Cu) (net 1))
  (segment (start 131.2735 80.0735) (end 131.2 80) (width 0.25) (layer F.Cu) (net 2))
  (segment (start 137.6045 80.01) (end 133.2675 80.01) (width 1.56) (layer F.Cu) (net 2))
  (segment (start 144.9578 87.503) (end 144.9578 91.84) (width 1.56) (layer F.Cu) (net 3) (tstamp 5CA1A991))
  (segment (start 144.9578 87.503) (end 144.9578 86.4922) (width 1.56) (layer F.Cu) (net 3))
  (segment (start 144.9578 86.4922) (end 146.74 84.71) (width 1.56) (layer F.Cu) (net 3))
  (segment (start 156.7815 80.01) (end 152.4445 80.01) (width 1.56) (layer F.Cu) (net 4) (tstamp 5CA1A8DA))

  (zone (net 1) (net_name GND) (layer F.Cu) (tstamp 5C96D294) (hatch edge 0.508)
    (connect_pads yes (clearance 0.3302))
    (min_thickness 0.254)
    (fill yes (arc_segments 16) (thermal_gap 0.508) (thermal_bridge_width 0.508))
    (polygon
      (pts
        (xy 130 70) (xy 160 70) (xy 160 95) (xy 130 95)
      )
    )
    (filled_polygon
      (pts
        (xy 155.790808 70.604893) (xy 156.556611 70.814393) (xy 157.273217 71.156197) (xy 157.91797 71.6195) (xy 158.470488 72.189653)
        (xy 158.913311 72.848644) (xy 159.232436 73.575631) (xy 159.418761 74.351731) (xy 159.4678 75.019518) (xy 159.4678 78.760588)
        (xy 155.25 78.760588) (xy 155.160373 78.769415) (xy 155.149215 78.7728) (xy 152.383722 78.7728) (xy 152.375936 78.773567)
        (xy 152.368766 78.773498) (xy 147.188766 79.233498) (xy 147.164371 79.2381) (xy 147.154572 79.242043) (xy 147.141672 79.243313)
        (xy 147.05549 79.269457) (xy 146.976063 79.311911) (xy 146.906446 79.369045) (xy 146.369045 79.906446) (xy 146.311911 79.976063)
        (xy 146.269457 80.05549) (xy 146.243313 80.141672) (xy 146.234486 80.231299) (xy 146.243313 80.320926) (xy 146.269457 80.407108)
        (xy 146.311911 80.486535) (xy 146.369045 80.556152) (xy 147.443848 81.630955) (xy 147.513465 81.688089) (xy 147.592892 81.730543)
        (xy 147.679074 81.756687) (xy 147.736575 81.76235) (xy 147.75925 81.766544) (xy 147.784144 81.76621) (xy 152.41531 81.2472)
        (xy 156.842278 81.2472) (xy 156.921353 81.239412) (xy 159.4678 81.239412) (xy 159.467801 89.976288) (xy 159.395107 90.790802)
        (xy 159.185607 91.55661) (xy 158.843803 92.273217) (xy 158.3805 92.91797) (xy 157.810347 93.470488) (xy 157.151356 93.913311)
        (xy 156.424372 94.232435) (xy 155.648269 94.418761) (xy 154.980482 94.4678) (xy 146.197212 94.4678) (xy 146.197212 90.05)
        (xy 146.195 90.02754) (xy 146.195 89.639797) (xy 151.3428 89.639797) (xy 151.3428 90.360203) (xy 151.483344 91.066766)
        (xy 151.759031 91.732334) (xy 152.159267 92.331329) (xy 152.668671 92.840733) (xy 153.267666 93.240969) (xy 153.933234 93.516656)
        (xy 154.639797 93.6572) (xy 155.360203 93.6572) (xy 156.066766 93.516656) (xy 156.732334 93.240969) (xy 157.331329 92.840733)
        (xy 157.840733 92.331329) (xy 158.240969 91.732334) (xy 158.516656 91.066766) (xy 158.6572 90.360203) (xy 158.6572 89.639797)
        (xy 158.516656 88.933234) (xy 158.240969 88.267666) (xy 157.840733 87.668671) (xy 157.331329 87.159267) (xy 156.732334 86.759031)
        (xy 156.066766 86.483344) (xy 155.360203 86.3428) (xy 154.639797 86.3428) (xy 153.933234 86.483344) (xy 153.267666 86.759031)
        (xy 152.668671 87.159267) (xy 152.159267 87.668671) (xy 151.759031 88.267666) (xy 151.483344 88.933234) (xy 151.3428 89.639797)
        (xy 146.195 89.639797) (xy 146.195 87.004664) (xy 147.657808 85.541857) (xy 147.773671 85.400678) (xy 147.888553 85.185747)
        (xy 147.959297 84.952534) (xy 147.983185 84.710001) (xy 147.959297 84.467467) (xy 147.888553 84.234254) (xy 147.773671 84.019324)
        (xy 147.767362 84.011636) (xy 146.93726 82.398068) (xy 146.934492 82.388943) (xy 146.892038 82.309516) (xy 146.890151 82.307216)
        (xy 146.885089 82.298689) (xy 146.869158 82.279558) (xy 146.864083 82.275454) (xy 146.834904 82.239899) (xy 145.760101 81.165096)
        (xy 145.690484 81.107962) (xy 145.611057 81.065508) (xy 145.524875 81.039364) (xy 145.435248 81.030537) (xy 145.345621 81.039364)
        (xy 145.259439 81.065508) (xy 145.180012 81.107962) (xy 145.110395 81.165096) (xy 144.572994 81.702497) (xy 144.51586 81.772114)
        (xy 144.473406 81.851541) (xy 144.447262 81.937723) (xy 144.438435 82.02735) (xy 144.447262 82.116977) (xy 144.473406 82.203159)
        (xy 144.51586 82.282586) (xy 144.572994 82.352203) (xy 145.578422 83.357631) (xy 145.65202 84.048316) (xy 144.125941 85.574394)
        (xy 144.078736 85.613135) (xy 144.039995 85.660341) (xy 144.039991 85.660345) (xy 143.924128 85.801523) (xy 143.833474 85.971126)
        (xy 143.809246 86.016453) (xy 143.738501 86.249666) (xy 143.7206 86.431422) (xy 143.7206 86.431432) (xy 143.714615 86.4922)
        (xy 143.7206 86.552968) (xy 143.7206 87.442223) (xy 143.720601 90.027534) (xy 143.718388 90.05) (xy 143.718388 94.4678)
        (xy 135.023701 94.4678) (xy 134.209198 94.395107) (xy 133.44339 94.185607) (xy 132.726783 93.843803) (xy 132.08203 93.3805)
        (xy 131.529512 92.810347) (xy 131.086689 92.151356) (xy 130.767565 91.424372) (xy 130.581239 90.648269) (xy 130.5322 89.980482)
        (xy 130.5322 89.639797) (xy 131.3428 89.639797) (xy 131.3428 90.360203) (xy 131.483344 91.066766) (xy 131.759031 91.732334)
        (xy 132.159267 92.331329) (xy 132.668671 92.840733) (xy 133.267666 93.240969) (xy 133.933234 93.516656) (xy 134.639797 93.6572)
        (xy 135.360203 93.6572) (xy 136.066766 93.516656) (xy 136.732334 93.240969) (xy 137.331329 92.840733) (xy 137.840733 92.331329)
        (xy 138.240969 91.732334) (xy 138.516656 91.066766) (xy 138.6572 90.360203) (xy 138.6572 89.639797) (xy 138.516656 88.933234)
        (xy 138.240969 88.267666) (xy 137.840733 87.668671) (xy 137.331329 87.159267) (xy 136.732334 86.759031) (xy 136.066766 86.483344)
        (xy 135.360203 86.3428) (xy 134.639797 86.3428) (xy 133.933234 86.483344) (xy 133.267666 86.759031) (xy 132.668671 87.159267)
        (xy 132.159267 87.668671) (xy 131.759031 88.267666) (xy 131.483344 88.933234) (xy 131.3428 89.639797) (xy 130.5322 89.639797)
        (xy 130.5322 81.239412) (xy 133.127647 81.239412) (xy 133.206722 81.2472) (xy 137.665278 81.2472) (xy 137.666198 81.247109)
        (xy 141.869701 81.257) (xy 141.898428 81.253777) (xy 141.898592 81.253722) (xy 141.961057 81.24757) (xy 142.047239 81.221426)
        (xy 142.126666 81.178972) (xy 142.196283 81.121838) (xy 142.733684 80.584437) (xy 142.790818 80.51482) (xy 142.833272 80.435393)
        (xy 142.859416 80.349211) (xy 142.868243 80.259584) (xy 142.859416 80.169957) (xy 142.833272 80.083775) (xy 142.790818 80.004348)
        (xy 142.733684 79.934731) (xy 141.658881 78.859928) (xy 141.589264 78.802794) (xy 141.509837 78.76034) (xy 141.423655 78.734196)
        (xy 141.364289 78.728349) (xy 141.353096 78.725118) (xy 141.328289 78.723012) (xy 137.634019 78.7728) (xy 135.050785 78.7728)
        (xy 135.039627 78.769415) (xy 134.95 78.760588) (xy 130.5322 78.760588) (xy 130.5322 75.023702) (xy 130.604893 74.209192)
        (xy 130.814393 73.443389) (xy 131.156197 72.726783) (xy 131.6195 72.08203) (xy 132.189653 71.529512) (xy 132.848644 71.086689)
        (xy 133.575631 70.767564) (xy 134.351731 70.581239) (xy 135.019518 70.5322) (xy 154.976298 70.5322)
      )
    )
  )
  (zone (net 1) (net_name GND) (layer B.Cu) (tstamp 5C96D291) (hatch edge 0.508)
    (connect_pads yes (clearance 0.3302))
    (min_thickness 0.254)
    (fill yes (arc_segments 16) (thermal_gap 0.508) (thermal_bridge_width 0.508))
    (polygon
      (pts
        (xy 130 70) (xy 160 70) (xy 160 95) (xy 130 95)
      )
    )
    (filled_polygon
      (pts
        (xy 155.790808 70.604893) (xy 156.556611 70.814393) (xy 157.273217 71.156197) (xy 157.91797 71.6195) (xy 158.470488 72.189653)
        (xy 158.913311 72.848644) (xy 159.232436 73.575631) (xy 159.418761 74.351731) (xy 159.4678 75.019518) (xy 159.467801 89.976288)
        (xy 159.395107 90.790802) (xy 159.185607 91.55661) (xy 158.843803 92.273217) (xy 158.3805 92.91797) (xy 157.810347 93.470488)
        (xy 157.151356 93.913311) (xy 156.424372 94.232435) (xy 155.648269 94.418761) (xy 154.980482 94.4678) (xy 135.023701 94.4678)
        (xy 134.209198 94.395107) (xy 133.44339 94.185607) (xy 132.726783 93.843803) (xy 132.08203 93.3805) (xy 131.529512 92.810347)
        (xy 131.086689 92.151356) (xy 130.767565 91.424372) (xy 130.581239 90.648269) (xy 130.5322 89.980482) (xy 130.5322 89.639797)
        (xy 131.3428 89.639797) (xy 131.3428 90.360203) (xy 131.483344 91.066766) (xy 131.759031 91.732334) (xy 132.159267 92.331329)
        (xy 132.668671 92.840733) (xy 133.267666 93.240969) (xy 133.933234 93.516656) (xy 134.639797 93.6572) (xy 135.360203 93.6572)
        (xy 136.066766 93.516656) (xy 136.732334 93.240969) (xy 137.331329 92.840733) (xy 137.840733 92.331329) (xy 138.240969 91.732334)
        (xy 138.516656 91.066766) (xy 138.6572 90.360203) (xy 138.6572 89.639797) (xy 151.3428 89.639797) (xy 151.3428 90.360203)
        (xy 151.483344 91.066766) (xy 151.759031 91.732334) (xy 152.159267 92.331329) (xy 152.668671 92.840733) (xy 153.267666 93.240969)
        (xy 153.933234 93.516656) (xy 154.639797 93.6572) (xy 155.360203 93.6572) (xy 156.066766 93.516656) (xy 156.732334 93.240969)
        (xy 157.331329 92.840733) (xy 157.840733 92.331329) (xy 158.240969 91.732334) (xy 158.516656 91.066766) (xy 158.6572 90.360203)
        (xy 158.6572 89.639797) (xy 158.516656 88.933234) (xy 158.240969 88.267666) (xy 157.840733 87.668671) (xy 157.331329 87.159267)
        (xy 156.732334 86.759031) (xy 156.066766 86.483344) (xy 155.360203 86.3428) (xy 154.639797 86.3428) (xy 153.933234 86.483344)
        (xy 153.267666 86.759031) (xy 152.668671 87.159267) (xy 152.159267 87.668671) (xy 151.759031 88.267666) (xy 151.483344 88.933234)
        (xy 151.3428 89.639797) (xy 138.6572 89.639797) (xy 138.516656 88.933234) (xy 138.240969 88.267666) (xy 137.840733 87.668671)
        (xy 137.331329 87.159267) (xy 136.732334 86.759031) (xy 136.066766 86.483344) (xy 135.360203 86.3428) (xy 134.639797 86.3428)
        (xy 133.933234 86.483344) (xy 133.267666 86.759031) (xy 132.668671 87.159267) (xy 132.159267 87.668671) (xy 131.759031 88.267666)
        (xy 131.483344 88.933234) (xy 131.3428 89.639797) (xy 130.5322 89.639797) (xy 130.5322 75.023702) (xy 130.604893 74.209192)
        (xy 130.814393 73.443389) (xy 131.156197 72.726783) (xy 131.6195 72.08203) (xy 132.189653 71.529512) (xy 132.848644 71.086689)
        (xy 133.575631 70.767564) (xy 134.351731 70.581239) (xy 135.019518 70.5322) (xy 154.976298 70.5322)
      )
    )
  )
  (zone (net 4) (net_name "Net-(J3-Pad1)") (layer F.Cu) (tstamp 0) (hatch edge 0.508)
    (connect_pads yes (clearance 0.3302))
    (min_thickness 0.03)
    (fill yes (arc_segments 32) (thermal_gap 0.508) (thermal_bridge_width 0.508))
    (polygon
      (pts
        (xy 147.76 81.3) (xy 152.41 80.79) (xy 152.41 79.23) (xy 147.23 79.7)
      )
    )
    (filled_polygon
      (pts
        (xy 152.395 80.776555) (xy 151.414888 80.884051) (xy 147.770424 81.283766) (xy 147.250184 79.713231) (xy 152.395 79.246423)
      )
    )
  )
  (zone (net 0) (net_name "") (layer F.Cu) (tstamp 0) (hatch edge 0.508)
    (connect_pads yes (clearance 0.3302))
    (min_thickness 0.254)
    (keepout (tracks allowed) (vias allowed) (copperpour not_allowed))
    (fill (arc_segments 16) (thermal_gap 0.508) (thermal_bridge_width 0.508))
    (polygon
      (pts
        (xy 147.76 81.3) (xy 152.41 80.79) (xy 152.41 81.12) (xy 147.77 81.64)
      )
    )
  )
  (zone (net 0) (net_name "") (layer F.Cu) (tstamp 0) (hatch edge 0.508)
    (connect_pads yes (clearance 0.3302))
    (min_thickness 0.254)
    (keepout (tracks allowed) (vias allowed) (copperpour not_allowed))
    (fill (arc_segments 16) (thermal_gap 0.508) (thermal_bridge_width 0.508))
    (polygon
      (pts
        (xy 147.2 79.36) (xy 152.38 78.9) (xy 152.38 79.23) (xy 147.23 79.7)
      )
    )
  )
  (zone (net 2) (net_name "Net-(J1-Pad1)") (layer F.Cu) (tstamp 0) (hatch edge 0.508)
    (connect_pads yes (clearance 0.3302))
    (min_thickness 0.03)
    (fill yes (arc_segments 32) (thermal_gap 0.508) (thermal_bridge_width 0.508))
    (polygon
      (pts
        (xy 137.64 79.23) (xy 141.33 79.19) (xy 141.87 80.79) (xy 137.62 80.79)
      )
    )
    (filled_polygon
      (pts
        (xy 141.849107 80.775) (xy 137.635194 80.775) (xy 137.654811 79.24484) (xy 141.319271 79.205117)
      )
    )
  )
  (zone (net 0) (net_name "") (layer F.Cu) (tstamp 0) (hatch edge 0.508)
    (connect_pads yes (clearance 0.3302))
    (min_thickness 0.03)
    (keepout (tracks allowed) (vias allowed) (copperpour not_allowed))
    (fill (arc_segments 32) (thermal_gap 0.508) (thermal_bridge_width 0.508))
    (polygon
      (pts
        (xy 137.62 78.9) (xy 141.33 78.85) (xy 141.33 79.19) (xy 137.61 79.23)
      )
    )
  )
  (zone (net 0) (net_name "") (layer F.Cu) (tstamp 0) (hatch edge 0.508)
    (connect_pads yes (clearance 0.3302))
    (min_thickness 0.03)
    (keepout (tracks allowed) (vias allowed) (copperpour not_allowed))
    (fill (arc_segments 32) (thermal_gap 0.508) (thermal_bridge_width 0.508))
    (polygon
      (pts
        (xy 137.6 80.79) (xy 141.86 80.79) (xy 141.87 81.13) (xy 137.62 81.12)
      )
    )
  )
  (zone (net 0) (net_name "") (layer F.Cu) (tstamp 0) (hatch edge 0.508)
    (connect_pads yes (clearance 0.3302))
    (min_thickness 0.03)
    (keepout (tracks allowed) (vias allowed) (copperpour not_allowed))
    (fill (arc_segments 32) (thermal_gap 0.508) (thermal_bridge_width 0.508) (smoothing fillet))
    (polygon
      (pts
        (xy 145.7 83.3) (xy 145.83 84.52) (xy 146.11 84.23) (xy 145.96 83.08)
      )
    )
  )
  (zone (net 0) (net_name "") (layer F.Cu) (tstamp 0) (hatch edge 0.508)
    (connect_pads yes (clearance 0.3302))
    (min_thickness 0.03)
    (keepout (tracks allowed) (vias allowed) (copperpour not_allowed))
    (fill (arc_segments 32) (thermal_gap 0.508) (thermal_bridge_width 0.508) (smoothing fillet))
    (polygon
      (pts
        (xy 146.78 82.37) (xy 147.67 84.1) (xy 147.39 84.28) (xy 146.5 82.56)
      )
    )
  )
  (zone (net 3) (net_name "Net-(J2-Pad1)") (layer F.Cu) (tstamp 0) (hatch edge 0.508)
    (connect_pads yes (clearance 0.3302))
    (min_thickness 0.03)
    (fill yes (arc_segments 32) (thermal_gap 0.508) (thermal_bridge_width 0.508))
    (polygon
      (pts
        (xy 145.53 82.07) (xy 146.26 82.53) (xy 146.5 82.56) (xy 147.39 84.28) (xy 146.91 85.22)
        (xy 146.11 84.25) (xy 145.96 83.07)
      )
    )
    (filled_polygon
      (pts
        (xy 146.252003 82.542691) (xy 146.254633 82.544007) (xy 146.258139 82.544884) (xy 146.490306 82.573905) (xy 146.74842 83.072731)
        (xy 147.354382 84.243803) (xy 147.373135 84.280045) (xy 146.907033 85.192827) (xy 146.124333 84.243803) (xy 146.123427 84.236678)
        (xy 146.123445 84.23665) (xy 146.124484 84.2339) (xy 146.124967 84.230999) (xy 146.124874 84.22806) (xy 146.024873 83.461387)
        (xy 145.97488 83.068108) (xy 145.97378 83.064075) (xy 145.562854 82.108433)
      )
    )
  )
)
