EESchema Schematic File Version 4
EELAYER 29 0
EELAYER END
$Descr A4 11693 8268
encoding utf-8
Sheet 1 1
Title ""
Date ""
Rev ""
Comp ""
Comment1 ""
Comment2 ""
Comment3 ""
Comment4 ""
$EndDescr
$Comp
L Connector:Conn_Coaxial J1
U 1 1 5C8CCA58
P 5750 3350
F 0 "J1" H 5750 3600 50  0000 C CNN
F 1 "SMA" H 5750 3500 50  0000 C CNN
F 2 "custom_footprints:CON_SMA_EDGE_S" H 5750 3350 50  0001 C CNN
F 3 " ~" H 5750 3350 50  0001 C CNN
	1    5750 3350
	-1   0    0    -1  
$EndComp
$Comp
L Connector:Conn_Coaxial J3
U 1 1 5C8CCBAB
P 8450 3350
F 0 "J3" H 8450 3600 50  0000 L CNN
F 1 "SMA" H 8400 3500 50  0000 L CNN
F 2 "custom_footprints:CON_SMA_EDGE_S" H 8450 3350 50  0001 C CNN
F 3 " ~" H 8450 3350 50  0001 C CNN
	1    8450 3350
	1    0    0    -1  
$EndComp
$Comp
L power:GND #PWR0102
U 1 1 5C8CCD95
P 5750 3550
F 0 "#PWR0102" H 5750 3300 50  0001 C CNN
F 1 "GND" H 5755 3377 50  0000 C CNN
F 2 "" H 5750 3550 50  0001 C CNN
F 3 "" H 5750 3550 50  0001 C CNN
	1    5750 3550
	1    0    0    -1  
$EndComp
$Comp
L power:GND #PWR0103
U 1 1 5C8CCDA8
P 6800 4600
F 0 "#PWR0103" H 6800 4350 50  0001 C CNN
F 1 "GND" H 6805 4427 50  0000 C CNN
F 2 "" H 6800 4600 50  0001 C CNN
F 3 "" H 6800 4600 50  0001 C CNN
	1    6800 4600
	1    0    0    -1  
$EndComp
$Comp
L power:GND #PWR0104
U 1 1 5C8CCDF4
P 8450 3550
F 0 "#PWR0104" H 8450 3300 50  0001 C CNN
F 1 "GND" H 8455 3377 50  0000 C CNN
F 2 "" H 8450 3550 50  0001 C CNN
F 3 "" H 8450 3550 50  0001 C CNN
	1    8450 3550
	1    0    0    -1  
$EndComp
$Comp
L custom_symbols:SIM-153+ U1
U 1 1 5CA9D210
P 6700 3650
F 0 "U1" H 7400 4400 50  0000 L CNN
F 1 "SIM-153+" H 7400 4300 50  0000 L CNN
F 2 "custom_footprints:SIM-153+" H 7900 3600 50  0001 C CNN
F 3 "https://www.minicircuits.com/pdfs/SIM-153+.pdf" H 6700 3650 50  0001 C CNN
	1    6700 3650
	1    0    0    -1  
$EndComp
$Comp
L Connector:Conn_Coaxial J2
U 1 1 5C8CCC86
P 6800 4400
F 0 "J2" H 6800 4650 50  0000 C CNN
F 1 "SMA" H 6800 4550 50  0000 C CNN
F 2 "custom_footprints:CON_SMA_EDGE_S" H 6800 4400 50  0001 C CNN
F 3 " ~" H 6800 4400 50  0001 C CNN
	1    6800 4400
	-1   0    0    -1  
$EndComp
Wire Wire Line
	7500 3350 8250 3350
Wire Wire Line
	7000 4400 7000 3850
Wire Wire Line
	6500 3350 5950 3350
Wire Wire Line
	6800 2750 6800 2700
Wire Wire Line
	6800 2700 6900 2700
Wire Wire Line
	6900 2700 6900 2750
Wire Wire Line
	7000 2750 7000 2700
Wire Wire Line
	7000 2700 6900 2700
Connection ~ 6900 2700
Wire Wire Line
	7100 2750 7100 2700
Wire Wire Line
	7100 2700 7000 2700
Connection ~ 7000 2700
Wire Wire Line
	7200 2750 7200 2700
Wire Wire Line
	7200 2700 7100 2700
Connection ~ 7100 2700
$Comp
L power:GND #PWR?
U 1 1 5CAA22E3
P 7000 2600
F 0 "#PWR?" H 7000 2350 50  0001 C CNN
F 1 "GND" H 7005 2427 50  0000 C CNN
F 2 "" H 7000 2600 50  0001 C CNN
F 3 "" H 7000 2600 50  0001 C CNN
	1    7000 2600
	-1   0    0    1   
$EndComp
Wire Wire Line
	7000 2700 7000 2600
$EndSCHEMATC
