G04 #@! TF.GenerationSoftware,KiCad,Pcbnew,(5.1.0-69-gb00413b7d)*
G04 #@! TF.CreationDate,2019-04-27T20:23:29+10:00*
G04 #@! TF.ProjectId,top,746f702e-6b69-4636-9164-5f7063625858,rev?*
G04 #@! TF.SameCoordinates,Original*
G04 #@! TF.FileFunction,Legend,Bot*
G04 #@! TF.FilePolarity,Positive*
%FSLAX46Y46*%
G04 Gerber Fmt 4.6, Leading zero omitted, Abs format (unit mm)*
G04 Created by KiCad (PCBNEW (5.1.0-69-gb00413b7d)) date 2019-04-27 20:23:29*
%MOMM*%
%LPD*%
G04 APERTURE LIST*
%ADD10C,0.200000*%
G04 APERTURE END LIST*
D10*
X181392857Y-97607142D02*
X181178571Y-97678571D01*
X180821428Y-97678571D01*
X180678571Y-97607142D01*
X180607142Y-97535714D01*
X180535714Y-97392857D01*
X180535714Y-97250000D01*
X180607142Y-97107142D01*
X180678571Y-97035714D01*
X180821428Y-96964285D01*
X181107142Y-96892857D01*
X181250000Y-96821428D01*
X181321428Y-96750000D01*
X181392857Y-96607142D01*
X181392857Y-96464285D01*
X181321428Y-96321428D01*
X181250000Y-96250000D01*
X181107142Y-96178571D01*
X180750000Y-96178571D01*
X180535714Y-96250000D01*
X180107142Y-96178571D02*
X179250000Y-96178571D01*
X179678571Y-97678571D02*
X179678571Y-96178571D01*
X177892857Y-97678571D02*
X178392857Y-96964285D01*
X178750000Y-97678571D02*
X178750000Y-96178571D01*
X178178571Y-96178571D01*
X178035714Y-96250000D01*
X177964285Y-96321428D01*
X177892857Y-96464285D01*
X177892857Y-96678571D01*
X177964285Y-96821428D01*
X178035714Y-96892857D01*
X178178571Y-96964285D01*
X178750000Y-96964285D01*
X177250000Y-97678571D02*
X177250000Y-96178571D01*
X176535714Y-97678571D02*
X176535714Y-96178571D01*
X175964285Y-96178571D01*
X175821428Y-96250000D01*
X175750000Y-96321428D01*
X175678571Y-96464285D01*
X175678571Y-96678571D01*
X175750000Y-96821428D01*
X175821428Y-96892857D01*
X175964285Y-96964285D01*
X176535714Y-96964285D01*
X174321428Y-97678571D02*
X175035714Y-97678571D01*
X175035714Y-96178571D01*
X173821428Y-97678571D02*
X173821428Y-96178571D01*
X173107142Y-97678571D02*
X173107142Y-96178571D01*
X172250000Y-97678571D01*
X172250000Y-96178571D01*
X171535714Y-96892857D02*
X171035714Y-96892857D01*
X170821428Y-97678571D02*
X171535714Y-97678571D01*
X171535714Y-96178571D01*
X170821428Y-96178571D01*
X169107142Y-97607142D02*
X168892857Y-97678571D01*
X168535714Y-97678571D01*
X168392857Y-97607142D01*
X168321428Y-97535714D01*
X168250000Y-97392857D01*
X168250000Y-97250000D01*
X168321428Y-97107142D01*
X168392857Y-97035714D01*
X168535714Y-96964285D01*
X168821428Y-96892857D01*
X168964285Y-96821428D01*
X169035714Y-96750000D01*
X169107142Y-96607142D01*
X169107142Y-96464285D01*
X169035714Y-96321428D01*
X168964285Y-96250000D01*
X168821428Y-96178571D01*
X168464285Y-96178571D01*
X168250000Y-96250000D01*
X167821428Y-96178571D02*
X166964285Y-96178571D01*
X167392857Y-97678571D02*
X167392857Y-96178571D01*
X165607142Y-97678571D02*
X166107142Y-96964285D01*
X166464285Y-97678571D02*
X166464285Y-96178571D01*
X165892857Y-96178571D01*
X165750000Y-96250000D01*
X165678571Y-96321428D01*
X165607142Y-96464285D01*
X165607142Y-96678571D01*
X165678571Y-96821428D01*
X165750000Y-96892857D01*
X165892857Y-96964285D01*
X166464285Y-96964285D01*
X164964285Y-96892857D02*
X164464285Y-96892857D01*
X164250000Y-97678571D02*
X164964285Y-97678571D01*
X164964285Y-96178571D01*
X164250000Y-96178571D01*
X163821428Y-96178571D02*
X162964285Y-96178571D01*
X163392857Y-97678571D02*
X163392857Y-96178571D01*
X161607142Y-97535714D02*
X161678571Y-97607142D01*
X161892857Y-97678571D01*
X162035714Y-97678571D01*
X162250000Y-97607142D01*
X162392857Y-97464285D01*
X162464285Y-97321428D01*
X162535714Y-97035714D01*
X162535714Y-96821428D01*
X162464285Y-96535714D01*
X162392857Y-96392857D01*
X162250000Y-96250000D01*
X162035714Y-96178571D01*
X161892857Y-96178571D01*
X161678571Y-96250000D01*
X161607142Y-96321428D01*
X160964285Y-97678571D02*
X160964285Y-96178571D01*
X160964285Y-96892857D02*
X160107142Y-96892857D01*
X160107142Y-97678571D02*
X160107142Y-96178571D01*
X159392857Y-96892857D02*
X158892857Y-96892857D01*
X158678571Y-97678571D02*
X159392857Y-97678571D01*
X159392857Y-96178571D01*
X158678571Y-96178571D01*
X157178571Y-97678571D02*
X157678571Y-96964285D01*
X158035714Y-97678571D02*
X158035714Y-96178571D01*
X157464285Y-96178571D01*
X157321428Y-96250000D01*
X157250000Y-96321428D01*
X157178571Y-96464285D01*
X157178571Y-96678571D01*
X157250000Y-96821428D01*
X157321428Y-96892857D01*
X157464285Y-96964285D01*
X158035714Y-96964285D01*
X154964285Y-98178571D02*
X155321428Y-98178571D01*
X155321428Y-96035714D01*
X154964285Y-96035714D01*
X153535714Y-97678571D02*
X154035714Y-96964285D01*
X154392857Y-97678571D02*
X154392857Y-96178571D01*
X153821428Y-96178571D01*
X153678571Y-96250000D01*
X153607142Y-96321428D01*
X153535714Y-96464285D01*
X153535714Y-96678571D01*
X153607142Y-96821428D01*
X153678571Y-96892857D01*
X153821428Y-96964285D01*
X154392857Y-96964285D01*
X152892857Y-96892857D02*
X152392857Y-96892857D01*
X152178571Y-97678571D02*
X152892857Y-97678571D01*
X152892857Y-96178571D01*
X152178571Y-96178571D01*
X151750000Y-96178571D02*
X151250000Y-97678571D01*
X150750000Y-96178571D01*
X150250000Y-97535714D02*
X150178571Y-97607142D01*
X150250000Y-97678571D01*
X150321428Y-97607142D01*
X150250000Y-97535714D01*
X150250000Y-97678571D01*
X147607142Y-97678571D02*
X148464285Y-97678571D01*
X148035714Y-97678571D02*
X148035714Y-96178571D01*
X148178571Y-96392857D01*
X148321428Y-96535714D01*
X148464285Y-96607142D01*
X147107142Y-98178571D02*
X146750000Y-98178571D01*
X146750000Y-96035714D01*
X147107142Y-96035714D01*
M02*
